<?xml version="1.0" encoding="UTF-8" standalone="no"?>
<graphml xmlns="http://graphml.graphdrawing.org/xmlns" xmlns:xsi="http://www.w3.org/2001/XMLSchema-instance" xmlns:y="http://www.yworks.com/xml/graphml" xmlns:yed="http://www.yworks.com/xml/yed/3" xsi:schemaLocation="http://graphml.graphdrawing.org/xmlns http://www.yworks.com/xml/schema/graphml/1.1/ygraphml.xsd">
  <!--Created by yEd 3.12-->
  <key for="graphml" id="d0" yfiles.type="resources"/>
  <key for="port" id="d1" yfiles.type="portgraphics"/>
  <key for="port" id="d2" yfiles.type="portgeometry"/>
  <key for="port" id="d3" yfiles.type="portuserdata"/>
  <key attr.name="url" attr.type="string" for="node" id="d4"/>
  <key attr.name="description" attr.type="string" for="node" id="d5"/>
  <key for="node" id="d6" yfiles.type="nodegraphics"/>
  <key attr.name="Description" attr.type="string" for="graph" id="d7"/>
  <key attr.name="url" attr.type="string" for="edge" id="d8"/>
  <key attr.name="description" attr.type="string" for="edge" id="d9"/>
  <key for="edge" id="d10" yfiles.type="edgegraphics"/>
  <graph edgedefault="directed" id="G">
    <data key="d7"/>
    <node id="n0">
      <data key="d6">
        <y:SVGNode>
          <y:Geometry height="336.26537451171873" width="402.52352940163945" x="201.00000000000003" y="228.01336669921875"/>
          <y:Fill color="#CCCCFF" transparent="false"/>
          <y:BorderStyle color="#000000" type="line" width="1.0"/>
          <y:NodeLabel alignment="center" autoSizePolicy="content" fontFamily="Dialog" fontSize="12" fontStyle="plain" hasBackgroundColor="false" hasLineColor="false" hasText="false" height="4.0" modelName="sandwich" modelPosition="s" textColor="#000000" visible="true" width="4.0" x="199.26176470081973" y="340.26537451171873"/>
          <y:NodeLabel alignment="center" autoSizePolicy="content" fontFamily="Dialog" fontSize="12" fontStyle="plain" hasBackgroundColor="false" hasLineColor="false" height="18.701171875" modelName="custom" textColor="#000000" visible="true" width="121.052734375" x="49.99538973173307" y="294.3432407141215">name = Steve Warner<y:LabelModel>
              <y:SmartNodeLabelModel distance="4.0"/>
            </y:LabelModel>
            <y:ModelParameter>
              <y:SmartNodeLabelModelParameter labelRatioX="-0.5" labelRatioY="0.5" nodeRatioX="-0.3757951123849769" nodeRatioY="0.4309445346363251" offsetX="0.0" offsetY="0.0" upX="0.0" upY="-1.0"/>
            </y:ModelParameter>
          </y:NodeLabel>
          <y:NodeLabel alignment="center" autoSizePolicy="content" fontFamily="Dialog" fontSize="12" fontStyle="plain" hasBackgroundColor="false" hasLineColor="false" height="18.701171875" modelName="custom" textColor="#000000" visible="true" width="113.1015625" x="49.99538973173307" y="309.92397017492226">phoneNo = 5558922<y:LabelModel>
              <y:SmartNodeLabelModel distance="4.0"/>
            </y:LabelModel>
            <y:ModelParameter>
              <y:SmartNodeLabelModelParameter labelRatioX="-0.5" labelRatioY="0.5" nodeRatioX="-0.3757951123849769" nodeRatioY="0.4772791579481216" offsetX="0.0" offsetY="0.0" upX="0.0" upY="-1.0"/>
            </y:ModelParameter>
          </y:NodeLabel>
          <y:SVGNodeProperties usingVisualBounds="true"/>
          <y:SVGModel svgBoundsPolicy="0">
            <y:SVGContent refid="1"/>
          </y:SVGModel>
        </y:SVGNode>
      </data>
    </node>
    <node id="n1">
      <data key="d6">
        <y:SVGNode>
          <y:Geometry height="61.69782265624993" width="86.4064640828251" x="359.0585326594072" y="299.070515563437"/>
          <y:Fill color="#CCCCFF" transparent="false"/>
          <y:BorderStyle color="#000000" type="line" width="1.0"/>
          <y:NodeLabel alignment="center" autoSizePolicy="content" fontFamily="Dialog" fontSize="12" fontStyle="plain" hasBackgroundColor="false" hasLineColor="false" hasText="false" height="4.0" modelName="sandwich" modelPosition="s" textColor="#000000" visible="true" width="4.0" x="41.20323204141255" y="65.69782265624991"/>
          <y:NodeLabel alignment="center" autoSizePolicy="content" fontFamily="Dialog" fontSize="12" fontStyle="plain" hasBackgroundColor="false" hasLineColor="false" height="18.701171875" modelName="custom" textColor="#000000" visible="true" width="67.01171875" x="81.13160796559237" y="58.34723671874997">isWifi = true<y:LabelModel>
              <y:SmartNodeLabelModel distance="4.0"/>
            </y:LabelModel>
            <y:ModelParameter>
              <y:SmartNodeLabelModelParameter labelRatioX="-0.4212845720774364" labelRatioY="-0.3208355091383812" nodeRatioX="0.5" nodeRatioY="0.5" offsetX="0.0" offsetY="0.0" upX="0.0" upY="-1.0"/>
            </y:ModelParameter>
          </y:NodeLabel>
          <y:SVGNodeProperties usingVisualBounds="true"/>
          <y:SVGModel svgBoundsPolicy="0">
            <y:SVGContent refid="2"/>
          </y:SVGModel>
        </y:SVGNode>
      </data>
    </node>
    <node id="n2">
      <data key="d6">
        <y:SVGNode>
          <y:Geometry height="30.843920361328173" width="37.46404858013712" x="274.2865720140935" y="473.8499534469123"/>
          <y:Fill color="#CCCCFF" transparent="false"/>
          <y:BorderStyle color="#000000" type="line" width="1.0"/>
          <y:NodeLabel alignment="center" autoSizePolicy="content" fontFamily="Dialog" fontSize="12" fontStyle="plain" hasBackgroundColor="false" hasLineColor="false" hasText="false" height="4.0" modelName="sandwich" modelPosition="s" textColor="#000000" visible="true" width="4.0" x="16.73202429006855" y="34.84392036132817"/>
          <y:SVGNodeProperties usingVisualBounds="true"/>
          <y:SVGModel svgBoundsPolicy="0">
            <y:SVGContent refid="3"/>
          </y:SVGModel>
        </y:SVGNode>
      </data>
    </node>
    <node id="n3">
      <data key="d6">
        <y:SVGNode>
          <y:Geometry height="16.6875" width="16.6875" x="386.8780147008198" y="360.7606833496094"/>
          <y:Fill color="#CCCCFF" transparent="false"/>
          <y:BorderStyle color="#000000" type="line" width="1.0"/>
          <y:NodeLabel alignment="center" autoSizePolicy="content" fontFamily="Dialog" fontSize="12" fontStyle="plain" hasBackgroundColor="false" hasLineColor="false" hasText="false" height="4.0" modelName="sandwich" modelPosition="s" textColor="#000000" visible="true" width="4.0" x="6.34375" y="20.6875"/>
          <y:SVGNodeProperties usingVisualBounds="true"/>
          <y:SVGModel svgBoundsPolicy="0">
            <y:SVGContent refid="4"/>
          </y:SVGModel>
        </y:SVGNode>
      </data>
    </node>
    <node id="n4">
      <data key="d6">
        <y:SVGNode>
          <y:Geometry height="16.6875" width="16.6875" x="369.57303609691866" y="360.7606833496094"/>
          <y:Fill color="#CCCCFF" transparent="false"/>
          <y:BorderStyle color="#000000" type="line" width="1.0"/>
          <y:NodeLabel alignment="center" autoSizePolicy="content" fontFamily="Dialog" fontSize="12" fontStyle="plain" hasBackgroundColor="false" hasLineColor="false" hasText="false" height="4.0" modelName="sandwich" modelPosition="s" textColor="#000000" visible="true" width="4.0" x="6.34375" y="20.6875"/>
          <y:SVGNodeProperties usingVisualBounds="true"/>
          <y:SVGModel svgBoundsPolicy="0">
            <y:SVGContent refid="4"/>
          </y:SVGModel>
        </y:SVGNode>
      </data>
    </node>
    <node id="n5">
      <data key="d6">
        <y:SVGNode>
          <y:Geometry height="42.54015529273323" width="42.077542792197754" x="346.7315574930175" y="468.00183598120975"/>
          <y:Fill color="#CCCCFF" transparent="false"/>
          <y:BorderStyle color="#000000" type="line" width="1.0"/>
          <y:NodeLabel alignment="center" autoSizePolicy="content" fontFamily="Dialog" fontSize="12" fontStyle="plain" hasBackgroundColor="false" hasLineColor="false" hasText="false" height="4.0" modelName="sandwich" modelPosition="s" textColor="#000000" visible="true" width="4.0" x="19.038771396098866" y="46.54015529273323"/>
          <y:SVGNodeProperties usingVisualBounds="true"/>
          <y:SVGModel svgBoundsPolicy="0">
            <y:SVGContent refid="5"/>
          </y:SVGModel>
        </y:SVGNode>
      </data>
    </node>
    <node id="n6">
      <data key="d6">
        <y:SVGNode>
          <y:Geometry height="16.6875" width="16.6875" x="404.1829933047209" y="360.7606833496094"/>
          <y:Fill color="#CCCCFF" transparent="false"/>
          <y:BorderStyle color="#000000" type="line" width="1.0"/>
          <y:NodeLabel alignment="center" autoSizePolicy="content" fontFamily="Dialog" fontSize="12" fontStyle="plain" hasBackgroundColor="false" hasLineColor="false" hasText="false" height="4.0" modelName="sandwich" modelPosition="s" textColor="#000000" visible="true" width="4.0" x="6.34375" y="20.6875"/>
          <y:SVGNodeProperties usingVisualBounds="true"/>
          <y:SVGModel svgBoundsPolicy="0">
            <y:SVGContent refid="4"/>
          </y:SVGModel>
        </y:SVGNode>
      </data>
    </node>
    <node id="n7">
      <data key="d6">
        <y:SVGNode>
          <y:Geometry height="38.71841308593753" width="53.039210284396134" x="407.97813400081895" y="471.82357818800546"/>
          <y:Fill color="#CCCCFF" transparent="false"/>
          <y:BorderStyle color="#000000" type="line" width="1.0"/>
          <y:NodeLabel alignment="center" autoSizePolicy="content" fontFamily="Dialog" fontSize="12" fontStyle="plain" hasBackgroundColor="false" hasLineColor="false" hasText="false" height="4.0" modelName="sandwich" modelPosition="s" textColor="#000000" visible="true" width="4.0" x="24.51960514219809" y="42.71841308593753"/>
          <y:SVGNodeProperties usingVisualBounds="true"/>
          <y:SVGModel svgBoundsPolicy="0">
            <y:SVGContent refid="6"/>
          </y:SVGModel>
        </y:SVGNode>
      </data>
    </node>
    <node id="n8">
      <data key="d6">
        <y:SVGNode>
          <y:Geometry height="51.64411484374999" width="72.32646408282517" x="274.28657201409345" y="388.56302967857334"/>
          <y:Fill color="#CCCCFF" transparent="false"/>
          <y:BorderStyle color="#000000" type="line" width="1.0"/>
          <y:NodeLabel alignment="center" autoSizePolicy="content" fontFamily="Dialog" fontSize="12" fontStyle="plain" hasBackgroundColor="false" hasLineColor="false" hasText="false" height="4.0" modelName="sandwich" modelPosition="s" textColor="#000000" visible="true" width="4.0" x="34.163232041412584" y="55.64411484375"/>
          <y:NodeLabel alignment="center" autoSizePolicy="content" fontFamily="Dialog" fontSize="12" fontStyle="plain" hasBackgroundColor="false" hasLineColor="false" height="18.701171875" modelName="custom" textColor="#000000" visible="true" width="71.681640625" x="0.3224117289125843" y="-17.693378181034348">isWifi = false<y:LabelModel>
              <y:SmartNodeLabelModel distance="4.0"/>
            </y:LabelModel>
            <y:ModelParameter>
              <y:SmartNodeLabelModelParameter labelRatioX="0.0" labelRatioY="0.44611066618168005" nodeRatioX="0.0" nodeRatioY="-0.5" offsetX="0.0" offsetY="0.0" upX="0.0" upY="-1.0"/>
            </y:ModelParameter>
          </y:NodeLabel>
          <y:SVGNodeProperties usingVisualBounds="true"/>
          <y:SVGModel svgBoundsPolicy="0">
            <y:SVGContent refid="2"/>
          </y:SVGModel>
        </y:SVGNode>
      </data>
    </node>
    <node id="n9">
      <data key="d6">
        <y:SVGNode>
          <y:Geometry height="35.36194008643275" width="38.699132838837954" x="491.01734428521513" y="475.18005118751023"/>
          <y:Fill color="#CCCCFF" transparent="false"/>
          <y:BorderStyle color="#000000" type="line" width="1.0"/>
          <y:NodeLabel alignment="center" autoSizePolicy="content" fontFamily="Dialog" fontSize="12" fontStyle="plain" hasBackgroundColor="false" hasLineColor="false" hasText="false" height="4.0" modelName="sandwich" modelPosition="s" textColor="#000000" visible="true" width="4.0" x="17.349566419419034" y="39.36194008643275"/>
          <y:SVGNodeProperties usingVisualBounds="true"/>
          <y:SVGModel svgBoundsPolicy="0">
            <y:SVGContent refid="7"/>
          </y:SVGModel>
        </y:SVGNode>
      </data>
    </node>
    <node id="n10">
      <data key="d6">
        <y:SVGNode>
          <y:Geometry height="16.6875" width="16.6875" x="420.8704933047209" y="360.7606833496094"/>
          <y:Fill color="#CCCCFF" transparent="false"/>
          <y:BorderStyle color="#000000" type="line" width="1.0"/>
          <y:NodeLabel alignment="center" autoSizePolicy="content" fontFamily="Dialog" fontSize="12" fontStyle="plain" hasBackgroundColor="false" hasLineColor="false" hasText="false" height="4.0" modelName="sandwich" modelPosition="s" textColor="#000000" visible="true" width="4.0" x="6.34375" y="20.6875"/>
          <y:SVGNodeProperties usingVisualBounds="true"/>
          <y:SVGModel svgBoundsPolicy="0">
            <y:SVGContent refid="4"/>
          </y:SVGModel>
        </y:SVGNode>
      </data>
    </node>
    <edge id="e0" source="n5" target="n3">
      <data key="d10">
        <y:PolyLineEdge>
          <y:Path sx="-2.2109639030813923" sy="-21.28441808546637" tx="0.0" ty="8.041388090390399">
            <y:Point x="365.55936498603495" y="451.82357818800546"/>
            <y:Point x="395.2217647008198" y="451.82357818800546"/>
          </y:Path>
          <y:LineStyle color="#000000" type="dashed" width="3.0"/>
          <y:Arrows source="none" target="standard"/>
          <y:BendStyle smoothed="false"/>
        </y:PolyLineEdge>
      </data>
    </edge>
    <edge id="e1" source="n7" target="n6">
      <data key="d10">
        <y:PolyLineEdge>
          <y:Path sx="-14.930995838296155" sy="-14.357984730974408" tx="0.0" ty="8.355960890390065">
            <y:Point x="419.5667433047209" y="448.00183598120975"/>
            <y:Point x="412.5267433047209" y="448.00183598120975"/>
          </y:Path>
          <y:LineStyle color="#000000" type="dashed" width="3.0"/>
          <y:Arrows source="none" target="standard"/>
          <y:BendStyle smoothed="false"/>
        </y:PolyLineEdge>
      </data>
    </edge>
    <edge id="e2" source="n8" target="n4">
      <data key="d10">
        <y:PolyLineEdge>
          <y:Path sx="31.849034548395196" sy="19.841648825645336" tx="0.0" ty="8.359726650390712">
            <y:Point x="377.91678609691866" y="434.2267359260937"/>
          </y:Path>
          <y:LineStyle color="#000000" type="dashed" width="3.0"/>
          <y:Arrows source="none" target="standard"/>
          <y:BendStyle smoothed="false"/>
        </y:PolyLineEdge>
      </data>
    </edge>
    <edge id="e3" source="n9" target="n0">
      <data key="d9"/>
      <data key="d10">
        <y:PolyLineEdge>
          <y:Path sx="0.0" sy="0.0" tx="0.0" ty="96.71496727564846"/>
          <y:LineStyle color="#000000" type="line" width="1.0"/>
          <y:Arrows source="none" target="standard"/>
          <y:BendStyle smoothed="false"/>
        </y:PolyLineEdge>
      </data>
    </edge>
    <edge id="e4" source="n9" target="n10">
      <data key="d10">
        <y:PolyLineEdge>
          <y:Path sx="-1.5195507046340708" sy="-16.62086123072646" tx="0.0" ty="0.0">
            <y:Point x="508.84736000000004" y="430.982727290168"/>
            <y:Point x="429.2142433047209" y="430.982727290168"/>
          </y:Path>
          <y:LineStyle color="#000000" type="dashed" width="3.0"/>
          <y:Arrows source="none" target="standard"/>
          <y:BendStyle smoothed="false"/>
        </y:PolyLineEdge>
      </data>
    </edge>
  </graph>
  <data key="d0">
    <y:Resources>
      <y:Resource id="1">&lt;?xml version="1.0" encoding="UTF-8" standalone="no"?&gt;
&lt;!-- Generator: Adobe Illustrator 18.1.1, SVG Export Plug-In . SVG Version: 6.00 Build 0)  --&gt;

&lt;svg
   xmlns:dc="http://purl.org/dc/elements/1.1/"
   xmlns:cc="http://creativecommons.org/ns#"
   xmlns:rdf="http://www.w3.org/1999/02/22-rdf-syntax-ns#"
   xmlns:svg="http://www.w3.org/2000/svg"
   xmlns="http://www.w3.org/2000/svg"
   xmlns:sodipodi="http://sodipodi.sourceforge.net/DTD/sodipodi-0.dtd"
   xmlns:inkscape="http://www.inkscape.org/namespaces/inkscape"
   version="1.1"
   id="Capa_1"
   x="0px"
   y="0px"
   viewBox="0 0 492 492"
   style="enable-background:new 0 0 492 492;"
   xml:space="preserve"
   inkscape:version="0.91 r13725"
   sodipodi:docname="House.svg"&gt;&lt;metadata
     id="metadata45"&gt;&lt;rdf:RDF&gt;&lt;cc:Work
         rdf:about=""&gt;&lt;dc:format&gt;image/svg+xml&lt;/dc:format&gt;&lt;dc:type
           rdf:resource="http://purl.org/dc/dcmitype/StillImage" /&gt;&lt;dc:title&gt;&lt;/dc:title&gt;&lt;/cc:Work&gt;&lt;/rdf:RDF&gt;&lt;/metadata&gt;&lt;defs
     id="defs43" /&gt;&lt;sodipodi:namedview
     pagecolor="#ffffff"
     bordercolor="#666666"
     borderopacity="1"
     objecttolerance="10"
     gridtolerance="10"
     guidetolerance="10"
     inkscape:pageopacity="0"
     inkscape:pageshadow="2"
     inkscape:window-width="1842"
     inkscape:window-height="1057"
     id="namedview41"
     showgrid="false"
     inkscape:zoom="0.6783626"
     inkscape:cx="435.62666"
     inkscape:cy="90.890329"
     inkscape:window-x="70"
     inkscape:window-y="-8"
     inkscape:window-maximized="1"
     inkscape:current-layer="Capa_1" /&gt;&lt;g
     id="g3"
     transform="translate(0,-122)"&gt;&lt;g
       id="g5"&gt;&lt;polygon
         style="fill:#010002"
         points="136,144 135,181 73,236 73,144 "
         id="polygon7" /&gt;&lt;polygon
         style="fill:#010002"
         points="492,340 247,124 246,123 245,124 0,340 26,369 246,175 466,369 "
         id="polygon9" /&gt;&lt;/g&gt;&lt;/g&gt;&lt;g
     id="g11" /&gt;&lt;g
     id="g13" /&gt;&lt;g
     id="g15" /&gt;&lt;g
     id="g17" /&gt;&lt;g
     id="g19" /&gt;&lt;g
     id="g21" /&gt;&lt;g
     id="g23" /&gt;&lt;g
     id="g25" /&gt;&lt;g
     id="g27" /&gt;&lt;g
     id="g29" /&gt;&lt;g
     id="g31" /&gt;&lt;g
     id="g33" /&gt;&lt;g
     id="g35" /&gt;&lt;g
     id="g37" /&gt;&lt;g
     id="g39" /&gt;&lt;rect
     style="fill:none;fill-rule:evenodd;stroke:#000000;stroke-width:5.47495222;stroke-linecap:butt;stroke-linejoin:miter;stroke-miterlimit:4;stroke-dasharray:none;stroke-opacity:1"
     id="rect4175"
     width="383.11826"
     height="268.45728"
     x="54.440872"
     y="216.54256"
     ry="0" /&gt;&lt;path
     style="fill:#ffffff;fill-opacity:1;stroke:none;stroke-width:5;stroke-miterlimit:4;stroke-dasharray:none;stroke-opacity:1"
     id="path4212"
     d="m 131.62531,198.73653 c 3.23627,-1.0005 6.52191,-1.26126 9.80323,-0.90958 3.77791,1.53995 7.31756,4.18347 11.09576,5.73531 1.4941,0.75255 3.09367,0.52089 4.6129,0.93995 0.64174,0.177 1.26264,0.51385 1.8945,0.76718 1.08152,0.43362 3.3945,1.34565 4.42907,1.75436 7.23924,2.88925 14.1162,7.62765 21.07996,11.85195 4.99869,3.05472 10.06189,5.7242 15.35398,7.00841 4.0682,1.12792 8.0534,-0.0954 12.03196,-1.44813 6.09868,-2.2249 12.13327,-4.89823 18.28477,-6.72691 3.47478,-0.99846 7.00859,-1.08804 10.52695,-1.13588 1.68736,0.14611 3.39153,-0.16295 5.07773,0.009 1.68086,0.17126 3.37542,0.71339 5.04136,1.10095 2.68228,0.64669 5.27051,1.97449 7.94565,2.66596 2.42603,0.5425 4.88034,0.56637 7.32466,0.62129 3.33367,0.39708 6.57434,-0.82301 9.7964,-2.04307 2.89775,-0.97861 5.83877,-1.55546 8.565,-3.50404 1.81354,-0.95039 3.64192,-1.8779 5.49621,-2.60427 1.40032,-0.50162 2.83608,-0.57617 4.26418,-0.61877 0.44202,-0.13623 0.90487,0.11577 1.34694,-0.0103 0.49848,-0.14301 0.95569,-0.54206 1.43997,-0.78052 0.88798,-0.43724 0.70554,-0.33889 1.64332,-0.64921 1.75994,-0.54779 3.55599,-0.64067 5.34298,-0.69177 2.04273,-0.0209 4.08551,-0.0133 6.12827,-0.0133 2.5633,0.03 5.12665,0.0389 7.68999,0.0452 3.40946,0.0495 6.81899,0.0414 10.22846,0.004 0.43025,-0.006 0.86085,0.0133 1.29072,-0.0157 2.19609,-0.14926 0.46207,-0.10119 2.60685,-0.52906 2.39941,-0.47868 4.84117,-0.60283 7.25239,-0.82839 6.77953,-0.49179 13.56744,-0.5484 20.35251,-0.62651 5.3206,-0.24215 10.63456,-0.7448 15.95372,-1.04828 2.53129,-0.16198 5.0639,-0.22923 7.59688,-0.26026 1.91389,0.19144 3.79601,-0.22926 5.69295,-0.54555 1.95549,-0.26657 3.89803,-0.36184 5.83161,-0.9124 1.60453,-0.58377 3.18506,-1.2404 4.82916,-1.51926 1.6091,-0.24409 3.22587,-0.2827 4.84079,-0.30191 1.52174,0.032 3.04843,-0.13256 4.55822,0.20975 1.64082,0.29621 3.19663,1.04825 4.64958,2.3041 1.97174,1.62069 3.93221,3.30306 6.04699,4.38353 1.39206,0.97737 2.85665,1.4764 4.35966,1.70008 1.28874,-10e-4 2.3745,1.20756 3.59168,1.75193 1.34021,0.72086 2.24156,2.54755 3.42321,3.70906 1.41425,0.88555 2.35836,1.12721 2.58307,3.89186 -0.97915,7.65998 -7.63509,9.71074 -11.91454,9.94298 -1.81604,0.18609 -3.55388,-0.79253 -5.30814,-1.38416 -1.857,-0.32145 -3.63561,-1.10486 -5.35953,-2.25093 -2.37711,-1.19903 -4.58395,-3.05834 -6.75864,-4.98732 -2.29276,-2.36788 -4.74315,-4.1694 -7.406,-5.06533 -2.58503,-0.59313 -5.20929,-0.50914 -7.81419,-0.52917 -3.70829,-0.0158 -7.41662,0.003 -11.12484,0.0415 -3.26472,-8e-5 -6.52942,0.009 -9.79409,0.038 -2.30718,0.028 -4.61444,0.0293 -6.92164,0.0147 -4.12357,-0.0906 -8.22786,-0.88511 -12.33586,-1.42128 -0.10624,-0.59829 -3.48049,0.0513 -3.84202,-0.54045 -0.27497,-0.44998 -0.82141,-1.35947 -0.49883,-1.7175 7.36587,-8.17539 5.87294,-7.99179 10.02319,-7.87876 2.52887,0.003 5.05769,0.0162 7.58656,0.003 1.97357,0.001 3.94713,-0.0158 5.92069,-0.0258 1.46188,-0.0118 2.92377,-0.004 4.38566,1e-5 1.31753,-0.17665 2.51559,0.66749 3.74351,1.29245 2.3692,1.20581 0.67907,0.14939 3.28308,1.99355 4.85604,3.44976 9.506,7.5386 14.15581,11.64285 2.49704,2.23344 5.1021,4.21607 8.00453,4.16439 0.10983,-0.0499 0.42596,-0.24833 0.32953,-0.14976 -2.94216,3.00736 -5.82105,6.19749 -8.87842,8.88804 -0.0398,0.035 -1.77819,-0.64349 -2.01468,-0.72012 -1.03226,-0.33453 -1.68693,-0.46041 -2.73194,-0.70083 -2.32385,-1.12803 -4.70253,-2.18313 -6.96674,-3.60455 -0.55101,-0.44419 -1.21866,-0.99401 -1.15342,-2.23612 0.0351,-0.66791 0.66703,-1.27423 0.93808,-1.52713 3.13647,-2.92643 6.29252,-5.79769 9.43879,-8.69653 2.32655,-1.28497 4.68372,-2.41233 7.02156,-3.64273 0.95685,-0.63195 5.17379,-3.36788 3.37435,1.48066 -4.28188,4.88552 -8.90038,10.32424 -14.19892,11.68418 -3.23151,0.45067 -6.47953,0.46487 -9.71649,0.20502 -6.2712,-0.5289 -12.51187,-1.76875 -18.7066,-3.40364 -11.02116,-2.52534 -21.82797,-6.84326 -32.66998,-10.82669 -12.97572,-4.34109 -26.07016,-7.87464 -39.20781,-10.67211 -12.55344,-2.5128 -25.17065,-4.04505 -37.80492,-4.93764 -6.35512,-0.34964 -12.71681,-0.61906 -19.07598,-0.44879 -0.29301,0.14699 -1.14317,0.69301 -0.87904,0.44079 2.75766,-2.6333 5.63736,-4.92582 8.37897,-7.60252 0.091,-0.0888 -0.18733,-0.47758 -0.0819,-0.49819 0.22213,-0.0434 2.72463,2.0384 2.86762,2.14815 3.09698,2.13964 6.3467,3.54032 9.62319,4.73939 3.28404,1.1032 6.40303,2.94363 9.36903,5.45196 2.74052,2.76088 5.00812,6.48625 7.68923,9.39395 4.44321,4.03941 9.51569,5.47488 14.50959,6.51382 4.07764,0.81153 8.13136,0.79493 12.15771,-0.50928 1.99087,-1.06832 4.16713,-1.61973 6.02339,-3.28709 0.5783,-0.68668 0.31481,-0.43465 0.76599,-0.81925 -2.7744,3.27121 -5.49581,6.66317 -8.32322,9.81362 -0.0558,0.0622 -1.36516,0.11017 -1.38672,0.1112 -1.34887,0.0647 -2.6542,0.0551 -4.0041,-0.0655 -4.3552,-0.58592 -8.55962,-2.64286 -12.84139,-3.95542 -3.49575,-1.07388 -7.06091,-1.14325 -10.60586,-1.25474 -4.9766,0.006 -9.95469,-0.0896 -14.89018,-1.18753 -4.31965,-1.51925 -8.58714,-3.37288 -12.95752,-4.49317 -4.54917,-1.03443 -9.14505,-0.67496 -13.71312,-0.26591 -11.0447,0.93647 -21.99484,3.52774 -32.94408,5.93637 -4.50262,1.11648 -9.04931,1.76666 -13.54042,3.01217 -0.65408,0.1814 -1.3127,0.35266 -1.94875,0.65864 -0.2298,0.11061 -0.82203,0.79663 -0.62372,0.57886 2.84162,-3.12058 5.70349,-6.19273 8.55522,-9.28909 5.56578,0.11695 11.11069,0.72109 16.65407,1.51319 6.34876,1.03811 12.69106,2.17096 19.03971,3.20885 3.92454,0.64663 7.86998,0.92327 11.81247,0.73016 4.25788,-0.78785 8.46758,-2.08068 12.69505,-3.18753 2.71272,-0.74499 5.46242,-0.96515 8.20825,-1.07019 1.14288,0.10958 2.27302,0.26202 3.38749,0.70119 0.27604,0.10869 0.5636,0.17889 0.81977,0.37753 0.15757,0.12224 0.53062,0.38984 0.39221,0.56225 -2.74653,3.42082 -5.6959,6.39377 -8.54383,9.59067 -5.14344,0.56198 -10.12611,-1.6589 -15.08582,-3.5531 -10.01987,-4.08258 -19.84491,-9.27697 -29.79416,-13.77471 -4.4337,-2.15403 -8.93807,-3.62945 -13.55572,-4.07541 -5.05745,-0.27784 -10.11997,-0.22811 -15.17955,-0.17874 -2.26213,0.0147 -4.52412,0.0576 -6.78606,0.10339 -1.28589,0.0261 -2.41578,-0.051 -3.61697,0.7072 2.77965,-2.55267 5.5593,-5.10533 8.33896,-7.65798 0.11263,-0.15575 0.19092,-0.49842 0.33788,-0.46722 0.55831,0.11841 1.05612,0.63949 1.59946,0.87833 0.95997,0.422 1.93222,0.76978 2.90558,1.10202 2.38758,0.81499 6.26339,1.90064 8.55577,2.56419 10.95238,3.08614 21.94457,5.75317 33.00277,7.61565 7.0442,1.14583 14.12585,1.30792 21.19894,1.38826 5.62639,0.40112 11.29368,-0.60516 16.90666,0.16541 0.40117,0.17975 0.84542,0.19614 1.20353,0.53925 0.22516,0.21571 0.66048,0.79659 0.44758,1.04269 -3.00631,3.47532 -6.12877,6.75622 -9.45307,9.36769 -0.81592,0.64098 -1.81232,0.14331 -2.71897,0.19434 -4.22906,0.23841 -5.06635,0.212 -9.64423,0.31289 -16.05516,0.18879 -32.1109,0.15086 -48.16635,0.223 -12.38653,0.48446 -24.71262,-1.24432 -36.99709,-3.56769 -1.50349,-0.28988 -4.75715,-0.90128 -6.44244,-1.27613 -0.0293,-0.006 -2.23634,-0.45393 -2.38694,-0.7668 -0.24136,-0.50146 -0.64914,-1.48875 -0.31942,-1.83468 2.99417,-3.14131 6.3639,-5.2301 9.54586,-7.84517 4.39897,0.0614 8.79223,-0.0262 13.18865,-0.26583 6.62625,-0.73716 13.26048,-1.21738 19.89905,-1.53288 1.05,-0.0377 2.09998,-0.0773 3.15,-0.11296 1.86705,-0.0633 3.24518,-0.0851 5.06888,-0.19484 0.42147,-0.0253 0.86797,-0.3404 1.26361,-0.10428 0.26645,0.15896 0.70537,0.87159 0.47595,1.1422 -2.92265,3.44733 -6.1619,6.13241 -9.24286,9.19862 -8.04083,1.92252 -16.10555,3.60173 -24.16989,5.27024 -4.90982,0.99357 -9.82362,2.0199 -14.76858,2.41703 -2.00658,0.15734 -4.01524,0.095 -6.02298,0.0747 -1.99306,-0.36538 -3.98219,-0.75529 -5.98491,-0.95133 -1.69411,-0.14124 -3.39084,-0.15058 -5.08674,-0.1527 -1.66511,0.001 -3.33021,-0.001 -4.99532,-4e-4 -2.18798,-0.0213 -4.37591,-0.0188 -6.56391,-0.0183 -1.97246,0.007 -3.94494,0.0206 -5.91741,0.0164 -1.64005,0.003 -3.28009,0.0118 -4.92014,0.0168 -1.58501,0.41986 -3.14036,1.06001 -4.72545,1.47373 -1.749637,0.44668 -3.518364,0.60857 -5.2868,0.68517 -1.491224,0.0487 -2.982769,0.0214 -4.474148,0.0171 -5.584366,-0.2628 -5.453647,2.8906 5.771017,-9.47399 2.363611,0.0365 4.725361,0.15793 7.085511,-0.0728 4.25771,-0.14375 8.52857,-0.59047 12.78805,-0.29751 3.68327,0.25333 5.12128,0.6974 8.79337,1.48248 5.9915,1.52772 11.93329,3.52458 17.93931,4.90469 1.95411,0.47632 3.92695,0.57114 5.89907,0.57168 2.32361,-0.0132 4.64405,-0.0585 6.96306,0.19196 0.65317,0.0679 1.31025,0.07 1.95955,0.20357 0.83918,0.17262 4.32662,1.35237 4.957,1.54489 3.42453,1.04596 6.86129,1.93812 10.30657,2.78296 9.44045,1.91714 18.85539,4.14646 28.29777,6.04159 3.29072,0.58674 6.60027,1.18442 9.85482,2.19703 0.38308,0.11915 1.44382,0.0943 1.13284,0.47497 -8.45683,10.35178 -5.85191,9.99216 -12.04373,7.87195 -16.6802,-4.20734 -33.50269,-6.5173 -50.3384,-8.303 -10.50444,-1.01749 -21.02395,-1.57871 -31.5468,-1.63817 -1.70901,-0.19364 -3.58091,0.0767 -5.21422,-1.0027 -0.1181,-0.0781 -1.90618,-1.5041 -0.9715,-2.54496 3.14309,-3.50012 6.63832,-6.09228 9.95748,-9.13843 7.61122,-1.58139 15.28359,-2.20654 22.94821,-2.62171 7.73768,-0.30208 15.4781,0.34787 23.2145,0.62418 8.67729,0.3675 17.39683,0.6656 25.95991,-2.04493 1.71444,-0.54268 3.39917,-1.30681 5.09875,-1.9602 2.52275,-1.17734 6.57542,-2.94027 9.0951,-4.57286 0.88253,-0.57181 3.3849,-2.80154 2.54714,-2.07486 -2.65321,2.30141 -5.21638,4.92053 -7.99407,6.79955 -0.55385,0.37466 -1.20062,-0.0775 -1.79796,-0.17556 -1.54887,-0.25449 -3.09237,-0.588 -4.63855,-0.88199 -20.38285,-2.00605 -40.83073,-1.8982 -61.24403,-1.70104 -17.86527,0.38361 -35.72148,2.1902 -53.466443,5.55848 -0.913637,0.24133 -1.836783,0.40244 -2.74091,0.72397 -0.35426,0.12593 -0.679906,0.40898 -1.019858,0.61346 2.85242,-3.04017 5.560964,-6.46632 8.557261,-9.12049 0.474918,-0.4207 1.082319,0.0686 1.623501,0.10221 3.621047,0.22392 1.852805,0.13712 5.837604,0.25925 5.588995,0.12328 11.178565,0.0255 16.767145,-0.10103 2.65117,-0.0925 5.3025,-0.0735 7.95388,-0.0306 8.17251,1.81889 16.35537,3.49314 24.56019,4.88057 13.45992,2.01407 26.97798,2.59635 40.48702,2.92142 9.56119,0.20388 19.12355,0.12548 28.68467,-0.0399 2.57965,-0.31526 5.21516,0.25608 7.78499,-0.3449 0.77428,-0.18108 1.53077,-0.52388 2.29713,-0.77808 3.10832,-1.3274 6.31495,-1.89006 9.48741,-2.69058 2.05671,-0.68086 4.09204,-1.50726 6.12407,-2.35554 0,0 -7.72388,9.55036 -7.72388,9.55036 l 0,0 c -2.05225,0.8201 -4.10685,1.62736 -6.18629,2.25216 -3.20674,0.82711 -6.4248,1.57768 -9.5763,2.86966 -3.27969,0.97665 -6.59016,0.58831 -9.9112,0.54467 -9.42617,-0.1411 -18.8526,-0.24916 -28.27824,-0.4709 -13.50913,-0.45002 -27.01848,-1.18487 -40.48531,-3.06238 -8.404,-1.18456 -16.78482,-2.74807 -25.18399,-3.97615 -2.64578,0.0461 -5.29157,0.0794 -7.93739,0.015 -5.524375,-0.0835 -11.048877,-0.14728 -16.573516,-0.15413 -0.660057,-0.006 -5.19822,-0.0299 -6.066882,-0.0878 -0.653311,-0.0436 -2.396893,0.52356 -1.955209,-0.25564 5.478723,-9.66542 5.598182,-9.48714 10.941636,-10.21439 17.471671,-2.18013 34.976901,-3.88998 52.502721,-4.25472 20.75515,-0.17903 41.52349,-0.35939 62.27043,0.6933 1.6986,0.24305 3.43063,0.13521 5.09579,0.72914 0.98861,0.35264 3.37606,0.78041 2.75367,2.07089 -4.65099,9.64334 -13.09011,12.64837 -19.89192,15.74834 -4.76541,1.7307 -5.50525,2.21808 -10.37187,3.10854 -6.94103,1.27 -13.92976,0.73283 -20.89558,0.69254 -7.77354,-0.16479 -15.54874,-0.63983 -23.32241,-0.4026 -7.70482,0.40612 -15.49751,0.70232 -23.0566,3.34017 2.27587,-2.46083 4.63387,-4.73401 6.8276,-7.38248 0.14964,-0.18066 -0.59036,-0.49409 -0.5464,-0.20071 0.0523,0.34911 0.38101,0.38124 0.59105,0.49867 1.54746,0.8651 3.24362,0.75103 4.84674,0.96163 10.25074,0.53484 20.49129,1.47221 30.71935,2.69572 17.07822,2.07498 34.1397,4.50618 51.16549,7.51209 6.18757,1.12845 5.86702,-0.28675 -3.89381,9.95838 -0.26696,0.2802 -0.59007,-0.39513 -0.8983,-0.5235 -1.51833,-0.63233 -4.10089,-1.32083 -5.49518,-1.65636 -1.3266,-0.31923 -2.65906,-0.57148 -3.98858,-0.85724 -9.45594,-2.04632 -18.91266,-4.08273 -28.38147,-5.96826 -3.52721,-0.74786 -7.0119,-1.66335 -10.51831,-2.62128 -1.21691,-0.33246 -3.67102,-1.04761 -5.00321,-1.2474 -0.66242,-0.0994 -1.32917,-0.0971 -1.99376,-0.14566 -2.35609,-0.0912 -4.7108,0.003 -7.06733,-0.001 -1.9656,-0.0664 -3.92451,-0.29791 -5.858,-0.91114 -5.85152,-1.70838 -11.64813,-3.89597 -17.53331,-5.30242 -3.8655,-0.74837 -4.90946,-1.1006 -8.78214,-1.26164 -4.36866,-0.18166 -8.73834,0.38893 -13.096995,0.75616 -2.420979,0.15134 -4.842855,0.13639 -7.265203,0.18928 8.43845,-10.58684 4.610142,-9.45098 10.350308,-9.45508 1.48582,0.003 2.97201,10e-4 4.45734,-0.0663 1.73153,-0.11149 3.46292,-0.31826 5.16897,-0.83354 1.61072,-0.51828 3.21686,-1.2183 4.867,-1.28715 1.63052,0.004 3.26103,0.0147 4.89155,0.0168 1.96321,-0.004 3.92643,0.009 5.88964,0.0161 2.19984,-1.6e-4 4.39962,0.001 6.59943,-0.0249 1.66941,-0.003 3.33886,-0.0175 5.00826,-0.003 1.70348,0.0252 3.40855,0.0488 5.10813,0.25606 1.98035,0.25359 3.94641,0.73958 5.9314,0.88492 1.9823,0.009 3.96543,0.0147 5.94694,-0.0867 4.7765,-0.34035 9.53603,-1.08879 14.28415,-1.98551 8.21551,-1.59917 16.47241,-3.16577 24.54886,-6.12697 -2.48911,2.74521 -5.09266,5.23729 -7.46733,8.23563 -0.15455,0.19514 0.60129,0.5046 0.42788,0.65264 -0.33452,0.28559 -0.75625,-0.0423 -1.13455,-0.0493 -2.68501,-0.0505 -5.36994,0.0526 -8.05414,0.14302 -6.65405,0.30045 -13.29969,0.84574 -19.94028,1.597 -4.47725,0.28722 -8.95939,0.27636 -13.43154,0.68621 18.10825,-17.5725 8.5594,-2.73069 6.98401,-8.92327 -0.0713,-0.28018 0.34474,0.24431 0.52608,0.32091 2.50273,1.05717 5.10285,1.4081 7.64593,2.08946 12.07544,2.62816 24.21324,4.24112 36.4116,4.02147 16.17586,0.0267 32.3554,0.0298 48.52635,-0.6943 2.93676,-0.19461 6.97068,-0.37559 9.99641,-0.85716 0.9508,-0.15132 3.47136,-1.81018 2.83736,-0.6551 -5.92523,10.79522 -4.62687,9.29924 -7.96541,7.90735 -5.53382,-0.70825 -11.11163,-0.0233 -16.65621,-0.31548 -7.05095,-0.1084 -14.11453,-0.28425 -21.12311,-1.67359 -11.01982,-2.21637 -21.97519,-5.13534 -32.95877,-7.76293 -3.97954,-1.01318 -8.05847,-1.80786 -11.97659,-3.37833 -0.62052,-0.24871 -1.26683,-0.45099 -1.82434,-0.9567 -0.47139,-0.42756 -1.60148,-1.20989 -1.19111,-1.77847 2.58809,-3.58575 5.81045,-5.76446 8.71567,-8.6467 3.40147,-0.68736 6.86941,0.13417 10.28406,-0.18393 5.10923,-0.007 10.22155,-0.16254 15.32851,0.14066 4.61311,0.55041 8.98444,2.34713 13.37848,4.68409 9.85319,4.81056 19.60378,10.27154 29.67896,13.78361 4.68834,1.56628 10.51491,4.15885 15.29682,2.07121 -2.59679,3.01788 -5.17591,6.07586 -7.79036,9.05367 -0.0283,0.0323 -0.0596,-0.0596 -0.0928,-0.0748 -0.24524,-0.11238 -0.4908,-0.22642 -0.74077,-0.30728 -1.0685,-0.34566 -2.15924,-0.43843 -3.24634,-0.45149 -2.69292,0.1274 -5.38396,0.42304 -8.0448,1.13681 -4.23356,1.08959 -8.45761,2.34196 -12.7304,2.96805 -3.9575,0.13476 -7.92528,-0.11989 -11.85361,-0.94478 -6.28039,-1.22535 -12.55953,-2.45688 -18.86159,-3.36578 -3.41931,-0.4545 -6.84183,-0.88926 -10.27343,-1.01777 -1.73276,-0.065 -3.47727,0.0513 -5.21049,-0.056 -0.56799,-0.0352 -1.13363,-0.13726 -1.70046,-0.20601 2.51068,-3.25245 4.96509,-6.6217 7.53203,-9.75734 0.15188,-0.18551 0.37642,-0.0929 0.56511,-0.13373 0.59061,-0.12784 1.18112,-0.25724 1.77274,-0.37229 4.38917,-0.85344 8.78751,-1.58653 13.1673,-2.56519 11.10765,-2.4002 22.21572,-4.95218 33.39354,-6.33088 4.67056,-0.44475 9.3802,-0.88332 14.02311,0.34175 4.32304,1.28317 8.54549,3.29921 12.87675,4.5116 4.91539,1.00443 9.8592,1.14757 14.81038,1.05589 3.60553,0.0626 7.23123,0.1109 10.76586,1.42247 4.23137,1.43997 8.41856,3.52383 12.77102,3.70889 1.36581,0.004 2.7147,-0.0464 4.07778,-0.16858 4.40855,-0.3952 3.23365,-0.94913 -6.10214,9.739 -2.0332,1.89152 -4.53947,2.26466 -6.73639,3.39011 -4.09742,1.10035 -8.21164,1.00594 -12.32932,0.0854 -5.09492,-1.28644 -10.2439,-2.97401 -14.80178,-7.04943 -2.65919,-2.89418 -4.93109,-6.4769 -7.64637,-9.21253 -2.9469,-2.36361 -6.0363,-4.02558 -9.25976,-5.11301 -3.31338,-1.31332 -6.59452,-2.82692 -9.74213,-4.98224 -0.96354,-0.67614 -2.5328,-1.33848 -3.28384,-2.65017 -0.24552,-0.42877 -0.85002,-1.15417 -0.55935,-1.50145 7.03145,-8.40106 5.56792,-8.06203 9.66245,-8.39923 6.2037,0.2994 12.4115,0.43191 18.60726,1.08219 12.56307,1.21401 25.11855,2.72151 37.60674,5.30438 13.1781,2.71485 26.29361,6.31041 39.29342,10.73875 10.93811,3.95902 21.88712,7.91185 33.00589,10.32184 6.26923,1.45655 12.57343,2.61064 18.90813,2.94861 3.24248,0.10266 6.51574,0.12137 9.72909,-0.67128 1.01206,-0.38756 1.95771,-0.82913 2.90039,-1.55566 0.31776,-0.24492 1.23996,-1.07745 0.93699,-0.78769 -16.81954,16.08549 -9.10517,8.61882 -6.76724,6.35383 0.54877,-0.23555 0.82229,-0.63109 1.14084,0.72693 0.0403,0.17172 -0.22393,0.0645 -0.33402,0.11002 -0.93773,0.38736 -1.84031,0.94341 -2.75821,1.43402 -2.32213,1.21372 -4.70708,2.18431 -6.92868,3.84088 2.51877,-2.38466 5.03755,-4.76932 7.55632,-7.15398 -0.22604,0.22932 -0.70074,0.90146 -1.0631,0.68139 -0.17275,-0.10486 -0.27196,-0.40386 -0.39941,-0.61957 -0.17083,-0.28912 1.34362,1.98606 0.64149,0.60286 2.21514,1.31504 4.46225,2.61886 6.77252,3.40571 1.33205,0.33377 2.66465,0.66093 3.97789,1.16073 0.32404,0.12328 1.20502,0.0353 0.96599,0.40988 -2.28658,3.58239 -4.90002,6.5803 -7.42698,9.7126 -0.0917,0.1137 -0.22875,-0.0541 -0.34312,-0.0812 -2.906,-0.62206 -5.53427,-2.53653 -8.02214,-5.00505 -4.58604,-4.22213 -9.24023,-8.2578 -14.15447,-11.41151 -2.23347,-1.34332 -4.55243,-2.74183 -6.97261,-2.60031 -1.46146,0.004 -2.9229,0.0118 -4.38437,-0.003 -1.95329,-0.0147 -3.90657,-0.0392 -5.85988,-0.0463 -2.53911,-0.0216 -5.07936,-0.0418 -7.61737,0.10162 -4.23176,0.56629 1.05947,0.063 7.32488,-7.63838 0.30363,-0.3732 -0.5944,-0.89525 -0.66976,-1.49958 -0.0339,-0.27148 0.33409,0.12622 0.50359,0.16699 0.94486,0.22716 2.13536,0.39575 3.05109,0.54437 4.1362,0.59416 8.28211,1.25251 12.43978,1.1357 2.29916,-0.0147 4.59837,-0.0132 6.89749,0.0133 3.24914,0.0274 6.49832,0.0323 9.74748,0.0132 3.71136,0.0133 7.4227,-0.0132 11.13401,-0.0433 2.67706,4.3e-4 5.3914,-0.15086 8.02684,0.73639 2.67106,1.15318 5.1145,3.15983 7.4706,5.48421 2.19895,1.82952 4.43616,3.50295 6.7972,4.71974 1.71193,1.00738 3.46632,1.60465 5.26557,2.04873 1.70088,0.61403 3.40461,1.3383 5.16558,0.99974 0.70481,-0.11223 1.44495,-0.18164 2.1172,-0.58335 0.1848,-0.11047 0.69839,-0.58808 0.53057,-0.42119 -7.95954,7.91565 -11.09632,9.04289 -7.70852,7.76264 0.6773,-1.00779 -1.69044,-1.90518 -1.98898,-2.37474 -1.06823,-1.19141 -1.98679,-2.79537 -3.28355,-3.32825 -1.14743,-0.63977 -2.23129,-1.53939 -3.47846,-1.52319 -1.53396,-0.37112 -3.01062,-1.06358 -4.44639,-2.01848 -2.10085,-1.27712 -4.07092,-3.01787 -6.10479,-4.54276 -1.42964,-0.9815 -2.92168,-1.60963 -4.47429,-1.82011 -1.50036,-0.13727 -3.00453,-0.0346 -4.50681,-0.0513 -1.58608,0.0351 -3.17584,0.0951 -4.75027,0.43585 -1.62045,0.42065 -3.19415,1.16021 -4.81698,1.55207 -1.93584,0.42978 -3.89307,0.42906 -5.8328,0.81574 -1.92026,0.34214 -3.83604,0.55116 -5.76989,0.4333 -2.47862,0 -4.95733,0.0345 -7.43538,0.12328 -5.25712,0.22599 -10.51117,0.60651 -15.76909,0.78284 -6.80365,0.0561 -13.6122,0.1327 -20.4055,0.80197 -2.1891,0.25648 -3.21791,0.33859 -5.36298,0.7331 -1.99774,0.3674 -3.98537,1.00105 -6.0082,0.77503 -3.41158,-0.0376 -6.82322,-0.044 -10.2348,0.001 -2.58377,0.003 -5.16753,0.009 -7.75129,0.0245 -2.04039,-0.0103 -4.08141,-0.0293 -6.12121,0.0651 -1.75483,0.11253 -3.51676,0.27083 -5.22885,0.95653 -1.51104,0.64405 -2.98805,1.41727 -4.57617,1.21749 -1.38517,0.0963 -2.7719,0.2791 -4.11348,0.88474 -1.81073,0.81051 -3.63253,1.59526 -5.38361,2.70547 -2.78683,1.54261 -5.69177,2.17665 -8.56119,3.19574 -3.2924,1.15728 -6.58782,2.20829 -9.97885,1.80189 -2.49027,-0.0346 -4.99161,-0.0944 -7.45227,-0.78896 -2.63839,-0.79954 -5.20776,-2.11644 -7.87487,-2.6929 -3.32914,-0.79388 -6.65573,-1.19025 -10.0248,-0.91473 -3.46037,0.0813 -6.92979,0.2505 -10.34485,1.24966 -6.11708,1.79557 -12.13386,4.32625 -18.17995,6.6478 -4.10764,1.37732 -8.20272,2.53434 -12.38168,1.14239 -5.23243,-1.55645 -10.22647,-4.42518 -15.16685,-7.58303 -6.97304,-4.27899 -13.9088,-8.93647 -21.23212,-11.44476 -2.10086,-0.77855 -4.21433,-1.71592 -6.35169,-2.20699 -2.87622,-0.66083 -0.43215,0.19475 -3.21635,-0.62943 -0.50605,-0.1498 -1.00523,-0.35498 -1.50784,-0.53249 -3.67295,-1.71773 -7.14421,-4.49307 -10.93115,-5.51106 -3.28503,-0.20404 -6.60426,0.1165 -9.78658,1.54687 0,0 7.9042,-9.83564 7.9042,-9.83564 z"
     inkscape:connector-curvature="0" /&gt;&lt;path
     style="color:#000000;clip-rule:nonzero;display:inline;overflow:visible;visibility:visible;opacity:1;isolation:auto;mix-blend-mode:normal;color-interpolation:sRGB;color-interpolation-filters:linearRGB;solid-color:#000000;solid-opacity:1;fill:#ffffff;fill-opacity:1;fill-rule:nonzero;stroke:none;stroke-width:1px;stroke-linecap:butt;stroke-linejoin:miter;stroke-miterlimit:4;stroke-dasharray:none;stroke-dashoffset:0;stroke-opacity:1;color-rendering:auto;image-rendering:auto;shape-rendering:auto;text-rendering:auto;enable-background:accumulate"
     d="m 57.489086,350.87063 0,-131.19827 15.718501,0 15.7185,0 1.731101,-1.84267 1.731101,-1.84267 -5.840766,-0.11679 c -3.212421,-0.0642 -6.408428,-0.0704 -7.102238,-0.0137 -0.817238,0.0668 -1.117639,-0.27176 -0.853036,-0.96131 0.335573,-0.87449 -0.870792,-1.10215 -6.762335,-1.27615 l -7.170769,-0.2118 90.511165,-79.80916 c 49.78114,-43.895043 90.76744,-79.716593 91.08066,-79.603446 1.4451,0.522024 180.3854,158.779736 182.20476,161.144856 1.135,1.47547 2.87633,3.17579 3.86961,3.77848 l 1.80597,1.09579 0,131.02756 0,131.02755 -188.32111,0 -188.321114,0 0,-131.19827 z M 258.14447,217.43955 c -2.63164,-2.39386 -5.36463,-2.82105 -6.82104,-1.06618 -0.51279,0.61787 -0.80217,1.23582 -0.64305,1.37322 0.87546,0.75598 5.05565,1.81427 7.29146,1.84598 l 2.57974,0.0366 -2.40711,-2.18959 0,2e-5 z m 86.92611,0.72943 c -3.53189,-1.25453 -4.65001,-1.31302 -11.05603,-0.57829 -3.91972,0.44956 -14.42375,1.03663 -23.34229,1.3046 -15.34175,0.46096 -14.746,0.49212 11.05604,0.57829 l 27.27155,0.0911 -3.92927,-1.39567 z m 54.07976,0.3644 c -1.57831,-1.1934 -2.72368,-1.09835 -3.1777,0.26371 -0.18724,0.56171 0.58842,0.86688 2.16514,0.85183 2.33027,-0.0223 2.38246,-0.0797 1.01256,-1.11554 z"
     id="path4214"
     inkscape:connector-curvature="0" /&gt;&lt;path
     style="fill:#ffffff;fill-opacity:1;stroke:none;stroke-width:5;stroke-miterlimit:4;stroke-dasharray:none;stroke-opacity:1"
     id="path4216"
     d="m 74.37604,215.48077 c 2.775205,0.48261 5.568074,0.3536 8.362169,0.18786 1.844274,-0.28575 4.494909,-0.0197 5.951925,-1.41329 -10.11907,7.13047 -6.034231,6.01014 -12.45249,5.98302 -1.701557,0.009 -3.403088,0.0249 -5.104675,0.0267 -1.795493,0.004 -3.590963,0.0183 -5.386462,0.0129 -1.848817,0.004 -3.674287,-0.16453 -5.455965,0.39679 -0.99403,0.42119 -2.095763,0.50269 -3.104508,0.86765 -0.117466,0.0425 -0.210604,0.16294 -0.335453,0.16706 -0.111617,0.004 -0.201024,-0.0974 -0.301536,-0.14603 -2.073653,-4.74675 -1.0109,-1.11907 9.263461,-6.73008 0.327889,-0.17907 1.312702,-0.71398 0.98802,-0.52916 -8.890298,5.06063 -11.576594,6.93517 -8.202663,4.61143 4.426999,-2.79095 8.952059,-5.48449 13.689504,-7.71498 1.880433,-0.64934 3.691343,-1.45783 5.535079,-2.19868 1.779687,-0.7067 3.284663,-1.57751 5.129897,-2.17868 2.799788,-0.98861 5.584978,-1.934 8.497638,-2.55522 2.560751,-0.55201 5.176304,-0.65694 7.785115,-0.72021 2.119224,-0.118 4.218014,0.17167 6.305614,0.50245 0,0 -8.814343,6.22006 -8.814343,6.22006 l 0,0 c -2.080526,-0.24793 -4.165973,-0.4334 -6.263798,-0.31227 -2.548198,0.0774 -5.096415,0.26099 -7.587805,0.83862 -2.902118,0.70441 -5.68384,1.72803 -8.497507,2.71708 -1.733805,0.67191 -3.330383,1.62523 -5.097149,2.22024 -1.82922,0.77389 -3.699383,1.44329 -5.506515,2.2673 -2.780845,1.42566 1.139335,-0.5826 -1.667025,0.85008 -0.257027,0.13122 -1.018948,0.54174 -0.769968,0.39583 15.275521,-8.95188 10.744234,-6.12683 7.437778,-4.33128 -3.684541,2.5388 -1.38685,0.97702 -10.527989,6.21391 -0.197905,0.11338 -0.4209,0.17681 -0.636795,0.25036 -0.171938,0.0586 -0.681745,0.23756 -0.525144,0.14552 3.039576,-1.78641 6.390645,-3.09311 9.189178,-5.23752 0.379665,-0.29092 -0.530315,-0.79617 -0.795473,-1.19426 0.09658,-0.30591 3.001405,-0.82707 3.480137,-1.02565 1.85737,-0.296 3.733877,-0.18171 5.609249,-0.20004 1.791773,-0.008 3.583587,0.002 5.375347,-0.0113 1.71448,-0.0168 3.429278,-0.0427 5.143781,-0.0233 6.828774,0.21665 3.633218,1.65539 -4.926343,7.3285 -2.00326,0.54938 -4.053307,0.87239 -6.135098,0.90479 -2.873868,0.12212 -5.740382,0.10825 -8.597982,-0.27654 0,0 8.948794,-6.30964 8.948794,-6.30964 z"
     inkscape:connector-curvature="0" /&gt;&lt;path
     style="fill:#ffffff;fill-opacity:1;stroke:none;stroke-width:5;stroke-miterlimit:4;stroke-dasharray:none;stroke-opacity:1"
     id="path4218"
     d="m 95.952479,214.60533 c 4.363051,0.27488 8.625221,-0.49396 12.859431,-1.43519 -1.67252,1.6217 3.01094,-1.38934 2.32655,-0.91408 -3.12453,2.16975 -6.16985,4.46446 -9.4154,6.44862 -0.55635,0.34012 -1.26343,0.32401 -1.899274,0.46861 -1.833858,0.41704 -3.676786,0.79321 -5.513124,1.1992 -3.843512,0.88107 -7.722597,1.61906 -11.648413,2.00695 -2.167526,0.26934 -3.380861,0.14467 -4.469571,-1.87035 -0.525084,-1.4005 -0.723862,-2.86602 -0.02932,-4.22302 4.162556,-2.59708 9.251163,-7.36755 14.716429,-5.72382 1.166692,0.19978 1.403648,1.54124 2.241699,2.10247 0.442032,0.29602 1.162921,0.19829 1.613339,0.20309 7.542355,-0.41276 15.092405,-0.60179 22.644295,-0.72216 15.29348,-0.18424 30.58776,-0.10023 45.88169,-0.0581 3.27575,0.005 6.5515,0.009 9.82726,0.0137 9.59219,0.0137 10.80147,0.10983 20.41776,-0.25443 9.23809,-0.34994 18.45945,-1.04897 27.67882,-1.70997 6.03074,-0.4776 12.0459,-1.12066 18.06015,-1.7672 2.91797,-0.31369 5.76526,-0.67368 8.69897,-0.65878 2.82482,0.0687 4.92712,1.91678 7.31132,3.15146 1.5744,0.76115 3.30725,0.76699 5.016,0.81943 2.15307,0.0426 4.30645,0.001 6.45963,-0.006 2.39576,0.0673 4.84104,-0.11602 7.21964,0.26689 0.64994,0.10463 1.28123,0.30313 1.92185,0.4547 5.14208,1.32515 9.7005,4.0948 14.13374,6.92242 1.47317,0.98483 3.06585,1.73832 4.66947,2.47463 0.31532,0.14479 0.64759,0.26013 0.94037,0.44633 0.1742,0.1108 0.60649,0.30769 0.44261,0.43325 -3.03062,2.32173 -6.30112,4.31235 -9.45168,6.46853 -4.23,0.10171 -8.35751,-0.86278 -12.37431,-2.11493 -3.69538,-1.32165 -7.51219,-2.22379 -11.09735,-3.83275 -2.17655,-1.15352 -4.58109,-1.57729 -6.92267,-2.21379 -1.59427,-0.4817 -3.2482,-0.59924 -4.90135,-0.67093 -2.49168,-0.22678 -4.91472,0.0848 -7.35562,0.55263 -2.44261,0.28247 -4.74867,1.16624 -7.1113,1.79302 -0.87945,0.2498 -1.78915,0.32596 -2.68909,0.45518 -0.18411,0.0264 -0.3762,0.0309 -0.54901,0.0997 -0.0586,0.0233 -0.15309,0.19628 -0.10193,0.1594 3.22975,-2.32793 6.43222,-4.69348 9.64834,-7.04022 7.70315,-3.04699 15.72071,-5.26861 23.70806,-7.43921 5.39019,-1.14228 10.89407,-3.0431 16.49226,-2.54552 1.25611,0.11164 2.49397,0.37581 3.74096,0.56372 11.9725,2.27677 24.15442,3.08942 36.30537,3.71135 7.14169,0.32426 14.2913,0.43524 21.43962,0.38387 2.72224,-0.10788 5.40377,-0.10342 8.05622,0.55636 2.64206,0.77793 5.45706,1.2322 7.91135,2.51808 1.0074,0.58064 3.01804,1.47423 2.76489,3.00228 -0.0509,0.30718 -0.15841,0.67298 -0.42674,0.83092 -3.42705,2.01712 -7.01705,3.74365 -10.52557,5.61548 -5.02904,0.4179 -10.08657,0.33828 -15.12895,0.34734 -5.6388,-0.1939 -11.19175,-1.26379 -16.69044,-2.45444 -1.71588,-0.54169 -3.86186,-0.82905 -5.18457,-2.19979 -0.16299,-0.16891 -0.57198,-0.44549 -0.38614,-0.58887 2.98552,-2.30351 6.24545,-4.22755 9.36818,-6.34132 3.5425,0.7377 7.14784,1.20199 10.73805,1.65892 4.74554,0.62454 9.54277,0.46178 14.29723,0.92379 5.88618,0.98659 11.83307,1.47199 17.78763,1.78532 4.65275,0.21678 9.31114,0.23637 13.96782,0.20614 2.05893,-0.0232 4.11795,-0.0333 6.17697,-0.0442 2.31752,0.009 4.63498,0.0207 6.95254,0.0144 2.05875,-0.0106 4.11753,-0.0104 6.1763,-0.0164 1.38112,0.0953 2.7096,-0.0624 4.0659,-0.27543 0,0 -8.73387,6.53809 -8.73387,6.53809 l 0,0 c -1.37962,0.18062 -2.76034,0.16711 -4.15033,0.14418 -2.04377,-0.006 -4.08753,-0.006 -6.13127,-0.016 -2.33421,-0.005 -4.66831,0.007 -7.00244,0.0249 -2.03081,-5.6e-4 -4.06175,0.007 -6.09236,-0.0271 -4.5991,-0.0756 -9.19842,-0.18645 -13.79339,-0.39963 -5.98028,-0.35774 -11.94317,-0.92658 -17.87715,-1.76077 -4.78229,-0.36424 -9.59686,-0.28779 -14.35953,-0.93669 -2.24284,-0.30217 -4.4822,-0.6478 -6.7301,-0.91072 -0.21322,-0.0249 -2.75188,-0.3073 -3.24743,-0.26958 -0.22335,0.017 -0.42276,0.14823 -0.63415,0.22235 2.90464,-2.00651 5.75398,-4.09553 8.71392,-6.01952 0.0841,-0.0546 0.058,0.20043 0.12807,0.27213 0.16758,0.17151 0.36145,0.31982 0.56851,0.44075 1.28252,0.74902 2.75759,1.08502 4.17032,1.48197 5.38709,1.25747 10.85575,2.28195 16.40567,2.36316 5.07437,-0.0364 10.22194,0.10057 15.235,-0.77404 -2.75238,1.66666 -5.58085,3.21368 -8.25714,4.99997 -0.32133,0.21448 1.06811,0.0367 1.05209,-0.16254 -0.0164,-0.20405 -0.19933,-0.3647 -0.34638,-0.50711 -0.59964,-0.58072 -1.19245,-0.80744 -1.93464,-1.1918 -2.45088,-1.09878 -5.12946,-1.67788 -7.72598,-2.32301 -2.60291,-0.45164 -5.22717,-0.41676 -7.8629,-0.42772 -6.97058,-0.15869 -13.93744,-0.44903 -20.89902,-0.83688 -12.25165,-0.76364 -24.51379,-1.67941 -36.65492,-3.54386 -1.26522,-0.11961 -2.52609,-0.30139 -3.79566,-0.35881 -5.45148,-0.24656 -10.79729,1.42113 -16.05835,2.55594 -8.19177,2.20741 -16.3437,4.62378 -24.19393,7.86766 10.00397,-8.38928 4.36018,-5.33776 10.91947,-6.96009 2.34836,-0.66497 4.68979,-1.36864 7.12086,-1.6753 2.51251,-0.41157 5.03543,-0.60051 7.58106,-0.4039 1.70021,0.12137 3.38408,0.34173 5.01707,0.85488 2.37837,0.60024 4.70594,1.33521 6.91373,2.42796 3.53232,1.53161 7.28442,2.46165 10.88693,3.81481 3.88473,1.12097 8.19576,2.30243 12.22029,1.2928 -2.83989,2.02225 -5.63161,4.11391 -8.51966,6.06676 -0.0707,0.0478 -0.10043,-0.14341 -0.17235,-0.18936 -0.2747,-0.17551 -0.56938,-0.31773 -0.85812,-0.46901 -1.57731,-0.82636 -3.15551,-1.6494 -4.62316,-2.66736 -4.32704,-2.83046 -8.82948,-5.52752 -13.96893,-6.55472 -3.02852,-0.52029 -6.0768,-0.54316 -9.14426,-0.44574 -2.15445,0.0124 -4.30939,0.008 -6.46328,-0.0469 -1.86178,-0.0791 -3.68296,-0.25428 -5.32871,-1.21752 -2.18299,-1.26072 -4.17715,-2.83235 -6.83659,-2.82479 -2.78442,0.002 -5.52657,0.26799 -8.30227,0.49355 -5.84211,0.47474 -11.68449,0.94796 -17.53265,1.34365 -9.15198,0.57514 -18.29971,1.19475 -27.46586,1.50514 -10.10019,0.34202 -10.41325,0.25692 -20.49018,0.27805 -3.29262,0.007 -6.58524,0.0158 -9.87786,0.0237 -15.47314,0.0754 -30.94823,0.14537 -46.41834,0.47515 -7.7858,0.22847 -15.560264,0.63963 -23.336344,1.02534 -0.43602,-0.0966 -0.891605,-0.12849 -1.308061,-0.28976 -1.137857,-0.44062 -1.406391,-1.84634 -2.655912,-2.06553 -4.788115,-0.66809 -11.723143,4.6838 4.381195,-4.67451 -0.17189,0.0624 -0.369236,0.0776 -0.515671,0.18707 -0.775766,0.58014 -0.226353,2.04678 -0.08035,2.77665 0.728602,1.41663 2.333069,0.93989 3.676483,0.84912 3.821772,-0.39118 7.601874,-1.08597 11.34703,-1.93833 1.87838,-0.41717 3.74364,-0.89853 5.63515,-1.25142 0.76456,-0.14263 2.83461,-0.90528 2.30959,-0.33148 -4.83886,5.28842 -5.66883,6.16415 -10.3565,7.23047 -4.349105,0.8874 -8.724857,1.44966 -13.176005,1.38795 0,0 8.822678,-6.41005 8.822678,-6.41005 z"
     inkscape:connector-curvature="0" /&gt;&lt;path
     style="fill:#ffffff;fill-opacity:1;stroke:none;stroke-width:5;stroke-miterlimit:4;stroke-dasharray:none;stroke-opacity:1"
     id="path4220"
     d="m 71.45665,210.99428 c 1.405853,-0.6554 2.95584,-0.82332 4.430934,-1.23023 0.811171,-0.22376 1.59095,-0.54878 2.387274,-0.8207 0.925451,-0.28961 1.270739,-0.36853 2.147328,-0.75337 0.264007,-0.1159 1.023394,-0.53097 0.773543,-0.38707 -2.972064,1.69227 -5.944128,3.38455 -8.916192,5.07682 0.06748,0.0401 0.170872,0.0484 0.202443,0.12031 0.09881,0.22493 0.110582,0.47874 0.165873,0.71812 -1.831905,0.12655 -3.540391,0.80261 -5.313442,1.23203 -0.318115,0.11845 -0.63972,0.22791 -0.954346,0.35533 -1.154594,0.46761 -0.775929,0.34591 -1.884863,0.92097 -0.303456,0.15736 -1.214428,0.62708 -0.918791,0.45548 9.55603,-5.54682 11.193025,-6.68957 7.895853,-4.43893 -3.741007,3.38728 -8.288401,5.72742 -12.902523,7.77063 14.849482,-9.50728 9.824358,-6.1605 6.776963,-3.21329 0,0 -10.111615,4.1544 -10.111615,4.1544 l 0,0 c 3.963632,-3.65159 3.554186,-5.10183 11.904772,-7.73066 3.778841,-1.67184 0.414727,-0.21216 -8.105561,4.79813 -0.197878,0.11636 0.421524,-0.18453 0.619716,-0.30035 0.574721,-0.33588 0.630462,-0.45939 1.128695,-0.90451 0.186163,-0.16632 0.377045,-0.32727 0.565568,-0.49091 3.368595,-3.32098 0.535279,-0.6285 10.72868,-6.43763 1.21145,-0.6904 2.547061,-1.17147 3.884273,-1.54619 1.867256,-0.51369 3.793136,-1.18712 5.753041,-0.86035 0.252014,0.29135 0.571288,0.53602 0.756043,0.87404 1.212865,2.21904 -8.933907,6.03937 -12.757792,7.23771 -2.279438,0.73648 -4.653568,1.17656 -6.840026,2.18441 0,0 8.584152,-6.78419 8.584152,-6.78419 z"
     inkscape:connector-curvature="0" /&gt;&lt;/svg&gt;</y:Resource>
      <y:Resource id="2">&lt;?xml version="1.0" encoding="UTF-8" standalone="no"?&gt;
&lt;svg
   xmlns:dc="http://purl.org/dc/elements/1.1/"
   xmlns:cc="http://creativecommons.org/ns#"
   xmlns:rdf="http://www.w3.org/1999/02/22-rdf-syntax-ns#"
   xmlns:svg="http://www.w3.org/2000/svg"
   xmlns="http://www.w3.org/2000/svg"
   xml:space="preserve"
   style="enable-background:new 0 0 456.871 456.871;"
   viewBox="0 0 456.871 456.871"
   y="0px"
   x="0px"
   id="Capa_1"
   version="1.1"&gt;&lt;metadata
     id="metadata45"&gt;&lt;rdf:RDF&gt;&lt;cc:Work
         rdf:about=""&gt;&lt;dc:format&gt;image/svg+xml&lt;/dc:format&gt;&lt;dc:type
           rdf:resource="http://purl.org/dc/dcmitype/StillImage" /&gt;&lt;dc:title&gt;&lt;/dc:title&gt;&lt;/cc:Work&gt;&lt;/rdf:RDF&gt;&lt;/metadata&gt;&lt;defs
     id="defs43" /&gt;&lt;g
     id="g3"&gt;&lt;rect
       id="rect5"
       height="14"
       width="218.989"
       y="332.174"
       x="56.694" /&gt;&lt;rect
       id="rect7"
       height="14"
       width="22.499"
       y="332.174"
       x="373.178" /&gt;&lt;path
       id="path9"
       d="M447.577,67.365c-2.525-1.335-5.358-2.041-8.192-2.041c-6.488,0-12.412,3.556-15.459,9.281L308.029,292.426H148.841   L32.944,74.604c-3.047-5.725-8.971-9.28-15.459-9.28c-2.833,0-5.667,0.706-8.205,2.048c-8.518,4.526-11.765,15.143-7.235,23.67   l107.148,201.385H53.457c-12.827,0-23.262,10.436-23.262,23.262v46.973c0,12.826,10.435,23.262,23.262,23.262h4.737v5.625h22.499   v-5.625h295.485v5.625h22.499v-5.625h4.737c12.827,0,23.262-10.436,23.262-23.262v-46.973c0-12.826-10.436-23.262-23.262-23.262   h-55.737l107.15-201.389C459.354,82.514,456.108,71.898,447.577,67.365z M15.837,79.742c0.524-0.277,1.079-0.418,1.648-0.418   c1.021,0,2.371,0.488,3.1,1.857l12.848,24.148l-6.051,3.527L14.407,84.469C13.5,82.763,14.148,80.639,15.837,79.742z    M33.963,121.226l6.052-3.527l92.968,174.728h-7.932L33.963,121.226z M412.676,315.688v46.973c0,5.107-4.155,9.262-9.262,9.262   H53.457c-5.107,0-9.262-4.154-9.262-9.262v-46.973c0-5.107,4.155-9.262,9.262-9.262h349.957   C408.521,306.426,412.676,310.58,412.676,315.688z M323.887,292.426l91.88-172.683l6.052,3.527l-90,169.155H323.887z    M442.466,84.465L428.4,110.902l-6.052-3.527l13.936-26.192c0.729-1.37,2.08-1.858,3.101-1.858c0.569,0,1.124,0.141,1.635,0.411   C442.723,80.639,443.37,82.763,442.466,84.465z" /&gt;&lt;/g&gt;&lt;g
     id="g11" /&gt;&lt;g
     id="g13" /&gt;&lt;g
     id="g15" /&gt;&lt;g
     id="g17" /&gt;&lt;g
     id="g19" /&gt;&lt;g
     id="g21" /&gt;&lt;g
     id="g23" /&gt;&lt;g
     id="g25" /&gt;&lt;g
     id="g27" /&gt;&lt;g
     id="g29" /&gt;&lt;g
     id="g31" /&gt;&lt;g
     id="g33" /&gt;&lt;g
     id="g35" /&gt;&lt;g
     id="g37" /&gt;&lt;g
     id="g39" /&gt;&lt;/svg&gt;</y:Resource>
      <y:Resource id="3">&lt;?xml version="1.0" encoding="UTF-8" standalone="no"?&gt;
&lt;svg
   xmlns:dc="http://purl.org/dc/elements/1.1/"
   xmlns:cc="http://creativecommons.org/ns#"
   xmlns:rdf="http://www.w3.org/1999/02/22-rdf-syntax-ns#"
   xmlns:svg="http://www.w3.org/2000/svg"
   xmlns="http://www.w3.org/2000/svg"
   xml:space="preserve"
   style="enable-background:new 0 0 51.413 51.413;"
   viewBox="0 0 51.413 51.413"
   y="0px"
   x="0px"
   id="Capa_1"
   version="1.1"&gt;&lt;metadata
     id="metadata49"&gt;&lt;rdf:RDF&gt;&lt;cc:Work
         rdf:about=""&gt;&lt;dc:format&gt;image/svg+xml&lt;/dc:format&gt;&lt;dc:type
           rdf:resource="http://purl.org/dc/dcmitype/StillImage" /&gt;&lt;dc:title&gt;&lt;/dc:title&gt;&lt;/cc:Work&gt;&lt;/rdf:RDF&gt;&lt;/metadata&gt;&lt;defs
     id="defs47" /&gt;&lt;g
     id="g3"&gt;&lt;g
       id="g5"&gt;&lt;path
         id="path7"
         d="M25.989,12.274c8.663,0.085,14.09-0.454,14.823,9.148h10.564c0-14.875-12.973-16.88-25.662-16.88    c-12.69,0-25.662,2.005-25.662,16.88h10.482C11.345,11.637,17.398,12.19,25.989,12.274z"
         style="fill:#010002;" /&gt;&lt;path
         id="path9"
         d="M5.291,26.204c2.573,0,4.714,0.154,5.19-2.377c0.064-0.344,0.101-0.734,0.101-1.185H10.46H0    C0,26.407,2.369,26.204,5.291,26.204z"
         style="fill:#010002;" /&gt;&lt;path
         id="path11"
         d="M40.88,22.642h-0.099c0,0.454,0.039,0.845,0.112,1.185c0.502,2.334,2.64,2.189,5.204,2.189    c2.936,0,5.316,0.193,5.316-3.374H40.88z"
         style="fill:#010002;" /&gt;&lt;path
         id="path13"
         d="M35.719,20.078v-1.496c0-0.669-0.771-0.711-1.723-0.711h-1.555c-0.951,0-1.722,0.042-1.722,0.711    v1.289v1h-11v-1v-1.289c0-0.669-0.771-0.711-1.722-0.711h-1.556c-0.951,0-1.722,0.042-1.722,0.711v1.496v1.306    C12.213,23.988,4.013,35.073,3.715,36.415l0.004,8.955c0,0.827,0.673,1.5,1.5,1.5h40c0.827,0,1.5-0.673,1.5-1.5v-9    c-0.295-1.303-8.493-12.383-11-14.987V20.078z M19.177,37.62c-0.805,0-1.458-0.652-1.458-1.458s0.653-1.458,1.458-1.458    s1.458,0.652,1.458,1.458S19.982,37.62,19.177,37.62z M19.177,32.62c-0.805,0-1.458-0.652-1.458-1.458s0.653-1.458,1.458-1.458    s1.458,0.652,1.458,1.458S19.982,32.62,19.177,32.62z M19.177,27.621c-0.805,0-1.458-0.652-1.458-1.458    c0-0.805,0.653-1.458,1.458-1.458s1.458,0.653,1.458,1.458C20.635,26.969,19.982,27.621,19.177,27.621z M25.177,37.62    c-0.805,0-1.458-0.652-1.458-1.458s0.653-1.458,1.458-1.458c0.806,0,1.458,0.652,1.458,1.458S25.983,37.62,25.177,37.62z     M25.177,32.62c-0.805,0-1.458-0.652-1.458-1.458s0.653-1.458,1.458-1.458c0.806,0,1.458,0.652,1.458,1.458    S25.983,32.62,25.177,32.62z M25.177,27.621c-0.805,0-1.458-0.652-1.458-1.458c0-0.805,0.653-1.458,1.458-1.458    c0.806,0,1.458,0.653,1.458,1.458C26.635,26.969,25.983,27.621,25.177,27.621z M31.177,37.62c-0.806,0-1.458-0.652-1.458-1.458    s0.652-1.458,1.458-1.458s1.458,0.652,1.458,1.458S31.983,37.62,31.177,37.62z M31.177,32.62c-0.806,0-1.458-0.652-1.458-1.458    s0.652-1.458,1.458-1.458s1.458,0.652,1.458,1.458S31.983,32.62,31.177,32.62z M31.177,27.621c-0.806,0-1.458-0.652-1.458-1.458    c0-0.805,0.652-1.458,1.458-1.458s1.458,0.653,1.458,1.458C32.635,26.969,31.983,27.621,31.177,27.621z"
         style="fill:#010002;" /&gt;&lt;/g&gt;&lt;/g&gt;&lt;g
     id="g15" /&gt;&lt;g
     id="g17" /&gt;&lt;g
     id="g19" /&gt;&lt;g
     id="g21" /&gt;&lt;g
     id="g23" /&gt;&lt;g
     id="g25" /&gt;&lt;g
     id="g27" /&gt;&lt;g
     id="g29" /&gt;&lt;g
     id="g31" /&gt;&lt;g
     id="g33" /&gt;&lt;g
     id="g35" /&gt;&lt;g
     id="g37" /&gt;&lt;g
     id="g39" /&gt;&lt;g
     id="g41" /&gt;&lt;g
     id="g43" /&gt;&lt;/svg&gt;</y:Resource>
      <y:Resource id="4">&lt;?xml version="1.0" encoding="UTF-8" standalone="no"?&gt;
&lt;svg
   xmlns:dc="http://purl.org/dc/elements/1.1/"
   xmlns:cc="http://creativecommons.org/ns#"
   xmlns:rdf="http://www.w3.org/1999/02/22-rdf-syntax-ns#"
   xmlns:svg="http://www.w3.org/2000/svg"
   xmlns="http://www.w3.org/2000/svg"
   xml:space="preserve"
   style="enable-background:new 0 0 512 512;"
   viewBox="0 0 512 512"
   height="512px"
   width="512px"
   y="0px"
   x="0px"
   id="Capa_1"
   version="1.1"&gt;&lt;metadata
     id="metadata43"&gt;&lt;rdf:RDF&gt;&lt;cc:Work
         rdf:about=""&gt;&lt;dc:format&gt;image/svg+xml&lt;/dc:format&gt;&lt;dc:type
           rdf:resource="http://purl.org/dc/dcmitype/StillImage" /&gt;&lt;dc:title&gt;&lt;/dc:title&gt;&lt;/cc:Work&gt;&lt;/rdf:RDF&gt;&lt;/metadata&gt;&lt;defs
     id="defs41" /&gt;&lt;g
     id="g3"&gt;&lt;path
       id="path5"
       d="M256,0C114.609,0,0,114.609,0,256c0,141.391,114.609,256,256,256c141.391,0,256-114.609,256-256   C512,114.609,397.391,0,256,0z M256,472c-119.297,0-216-96.703-216-216S136.703,40,256,40s216,96.703,216,216S375.297,472,256,472z   " /&gt;&lt;path
       id="path7"
       d="M319.5,208.5h-128v96h128V208.5z M367.5,336.5h-48v16h64v-64h-16V336.5z M319.5,160.5v16h48v48h16v-64H319.5z M143.5,176.5   h48v-16h-64v64h16V176.5z M143.5,288.5h-16v64h64v-16h-48V288.5z" /&gt;&lt;/g&gt;&lt;g
     id="g9" /&gt;&lt;g
     id="g11" /&gt;&lt;g
     id="g13" /&gt;&lt;g
     id="g15" /&gt;&lt;g
     id="g17" /&gt;&lt;g
     id="g19" /&gt;&lt;g
     id="g21" /&gt;&lt;g
     id="g23" /&gt;&lt;g
     id="g25" /&gt;&lt;g
     id="g27" /&gt;&lt;g
     id="g29" /&gt;&lt;g
     id="g31" /&gt;&lt;g
     id="g33" /&gt;&lt;g
     id="g35" /&gt;&lt;g
     id="g37" /&gt;&lt;/svg&gt;</y:Resource>
      <y:Resource id="5">&lt;?xml version="1.0" encoding="UTF-8" standalone="no"?&gt;
&lt;svg
   xmlns:dc="http://purl.org/dc/elements/1.1/"
   xmlns:cc="http://creativecommons.org/ns#"
   xmlns:rdf="http://www.w3.org/1999/02/22-rdf-syntax-ns#"
   xmlns:svg="http://www.w3.org/2000/svg"
   xmlns="http://www.w3.org/2000/svg"
   xml:space="preserve"
   style="enable-background:new 0 0 346.304 346.304;"
   viewBox="0 0 346.304 346.304"
   height="346.304px"
   width="346.304px"
   y="0px"
   x="0px"
   id="Capa_1"
   version="1.1"&gt;&lt;metadata
     id="metadata57"&gt;&lt;rdf:RDF&gt;&lt;cc:Work
         rdf:about=""&gt;&lt;dc:format&gt;image/svg+xml&lt;/dc:format&gt;&lt;dc:type
           rdf:resource="http://purl.org/dc/dcmitype/StillImage" /&gt;&lt;dc:title&gt;&lt;/dc:title&gt;&lt;/cc:Work&gt;&lt;/rdf:RDF&gt;&lt;/metadata&gt;&lt;defs
     id="defs55" /&gt;&lt;g
     id="g3"&gt;&lt;g
       id="g5"&gt;&lt;g
         id="g7"&gt;&lt;rect
           id="rect9"
           height="14.321"
           width="109.506"
           y="45.325"
           x="34.609" /&gt;&lt;/g&gt;&lt;g
         id="g11"&gt;&lt;rect
           id="rect13"
           height="14.312"
           width="109.506"
           y="91.007"
           x="34.609" /&gt;&lt;/g&gt;&lt;g
         id="g15"&gt;&lt;path
           id="path17"
           d="M93.069,194.01c-13.964,0-25.329,11.367-25.329,25.334c0,13.962,11.364,25.322,25.329,25.322     c13.958,0,25.334-11.366,25.334-25.322C118.403,205.371,107.027,194.01,93.069,194.01z M93.069,235.215     c-8.77,0-15.865-7.098-15.865-15.871c0-8.772,7.095-15.87,15.865-15.87c8.767,0,15.876,7.098,15.876,15.87     C108.945,228.111,101.836,235.215,93.069,235.215z" /&gt;&lt;/g&gt;&lt;g
         id="g19"&gt;&lt;path
           id="path21"
           d="M342.063,61.887L183.939,0.205c-0.865-0.333-1.777-0.228-2.643,0.087c-0.252-0.051-0.48-0.156-0.774-0.156H5.612     c-2.06,0-3.726,1.667-3.726,3.726v338.677c0,2.06,1.667,3.723,3.726,3.723h174.911c0.318,0,0.57-0.108,0.835-0.168     c0.402,0.138,0.816,0.21,1.225,0.21c0.223,0,0.475-0.019,0.703-0.06l158.124-30.175c1.735-0.33,3.009-1.873,3.009-3.663V65.357     C344.424,63.82,343.486,62.451,342.063,61.887z M93.069,257.793c-21.203,0-38.449-17.252-38.449-38.449     c0-21.208,17.246-38.46,38.449-38.46c21.212,0,38.455,17.252,38.455,38.46C131.523,240.541,114.281,257.793,93.069,257.793z      M156.095,113.068c0,2.06-1.667,3.72-3.72,3.72H27.971c-2.06,0-3.726-1.667-3.726-3.72V84.507c0-2.048,1.667-3.714,3.726-3.714     h124.404c2.06,0,3.72,1.666,3.72,3.714V113.068z M156.095,70.488H24.245V34.493h131.851V70.488z M336.978,309.326     l-150.673,28.757V9.11l150.673,58.793V309.326z" /&gt;&lt;/g&gt;&lt;/g&gt;&lt;/g&gt;&lt;g
     id="g23" /&gt;&lt;g
     id="g25" /&gt;&lt;g
     id="g27" /&gt;&lt;g
     id="g29" /&gt;&lt;g
     id="g31" /&gt;&lt;g
     id="g33" /&gt;&lt;g
     id="g35" /&gt;&lt;g
     id="g37" /&gt;&lt;g
     id="g39" /&gt;&lt;g
     id="g41" /&gt;&lt;g
     id="g43" /&gt;&lt;g
     id="g45" /&gt;&lt;g
     id="g47" /&gt;&lt;g
     id="g49" /&gt;&lt;g
     id="g51" /&gt;&lt;/svg&gt;</y:Resource>
      <y:Resource id="6">&lt;?xml version="1.0" encoding="UTF-8" standalone="no"?&gt;
&lt;svg
   xmlns:dc="http://purl.org/dc/elements/1.1/"
   xmlns:cc="http://creativecommons.org/ns#"
   xmlns:rdf="http://www.w3.org/1999/02/22-rdf-syntax-ns#"
   xmlns:svg="http://www.w3.org/2000/svg"
   xmlns="http://www.w3.org/2000/svg"
   xml:space="preserve"
   style="enable-background:new 0 0 34.418 34.418;"
   viewBox="0 0 34.418 34.418"
   y="0px"
   x="0px"
   id="Capa_1"
   version="1.1"&gt;&lt;metadata
     id="metadata41"&gt;&lt;rdf:RDF&gt;&lt;cc:Work
         rdf:about=""&gt;&lt;dc:format&gt;image/svg+xml&lt;/dc:format&gt;&lt;dc:type
           rdf:resource="http://purl.org/dc/dcmitype/StillImage" /&gt;&lt;dc:title&gt;&lt;/dc:title&gt;&lt;/cc:Work&gt;&lt;/rdf:RDF&gt;&lt;/metadata&gt;&lt;defs
     id="defs39" /&gt;&lt;g
     id="g3"&gt;&lt;path
       id="path5"
       d="M32.335,11.606h-6.533v-1.009h6.533V11.606z M32.335,12.264h-6.533v1.011h6.533V12.264z    M32.331,7.687h-6.523V9.91h6.523V7.687z M34.418,5.297v23.827c-0.001,0.357-0.292,0.648-0.65,0.648h-9.397   c-0.359,0-0.649-0.291-0.649-0.649V5.297c0-0.358,0.29-0.65,0.649-0.65h9.397C34.127,4.647,34.418,4.939,34.418,5.297z    M33.119,5.944h-8.1v22.53h8.1V5.944z M32.335,13.932h-6.533v1.008h6.533V13.932z M31.272,21.45c0,1.162-0.939,2.099-2.097,2.099   c-1.16,0-2.099-0.938-2.099-2.099c0-1.158,0.94-2.098,2.099-2.098C30.333,19.352,31.272,20.293,31.272,21.45z M30.515,21.45   c0-0.739-0.6-1.341-1.341-1.341c-0.742,0-1.342,0.601-1.342,1.341s0.6,1.34,1.342,1.34C29.915,22.79,30.515,22.19,30.515,21.45z    M21.937,9.218v13.505c0,0.814-0.655,1.473-1.461,1.473H13.18c0,0-0.414,2.948,2.212,2.948v1.475H13.18H8.758H6.546v-1.473   c2.529,0,2.212-2.948,2.212-2.948H1.465C0.656,24.198,0,23.539,0,22.725V9.218c0-0.814,0.656-1.47,1.465-1.47h19.01   C21.282,7.748,21.937,8.404,21.937,9.218z M12.332,22.394c0-0.698-0.566-1.263-1.264-1.263c-0.699,0-1.266,0.565-1.266,1.263   s0.566,1.265,1.266,1.265C11.767,23.659,12.332,23.092,12.332,22.394z M20.371,9.311H1.568v11.387H20.37h0.001   C20.371,20.698,20.371,9.311,20.371,9.311z M11.081,21.603c-0.434,0-0.785,0.352-0.785,0.785s0.352,0.785,0.785,0.785   s0.785-0.352,0.785-0.785S11.515,21.603,11.081,21.603z"
       style="fill:#010002;" /&gt;&lt;/g&gt;&lt;g
     id="g7" /&gt;&lt;g
     id="g9" /&gt;&lt;g
     id="g11" /&gt;&lt;g
     id="g13" /&gt;&lt;g
     id="g15" /&gt;&lt;g
     id="g17" /&gt;&lt;g
     id="g19" /&gt;&lt;g
     id="g21" /&gt;&lt;g
     id="g23" /&gt;&lt;g
     id="g25" /&gt;&lt;g
     id="g27" /&gt;&lt;g
     id="g29" /&gt;&lt;g
     id="g31" /&gt;&lt;g
     id="g33" /&gt;&lt;g
     id="g35" /&gt;&lt;/svg&gt;</y:Resource>
      <y:Resource id="7">&lt;?xml version="1.0" encoding="UTF-8" standalone="no"?&gt;
&lt;svg
   xmlns:dc="http://purl.org/dc/elements/1.1/"
   xmlns:cc="http://creativecommons.org/ns#"
   xmlns:rdf="http://www.w3.org/1999/02/22-rdf-syntax-ns#"
   xmlns:svg="http://www.w3.org/2000/svg"
   xmlns="http://www.w3.org/2000/svg"
   xml:space="preserve"
   style="enable-background:new 0 0 585.938 585.938;"
   viewBox="0 0 585.938 585.938"
   height="585.938px"
   width="585.938px"
   y="0px"
   x="0px"
   id="Capa_1"
   version="1.1"&gt;&lt;metadata
     id="metadata47"&gt;&lt;rdf:RDF&gt;&lt;cc:Work
         rdf:about=""&gt;&lt;dc:format&gt;image/svg+xml&lt;/dc:format&gt;&lt;dc:type
           rdf:resource="http://purl.org/dc/dcmitype/StillImage" /&gt;&lt;dc:title&gt;&lt;/dc:title&gt;&lt;/cc:Work&gt;&lt;/rdf:RDF&gt;&lt;/metadata&gt;&lt;defs
     id="defs45" /&gt;&lt;g
     id="g3"&gt;&lt;g
       id="g5"&gt;&lt;g
         id="g7"&gt;&lt;path
           id="path9"
           d="M439.552,250.876l13.009-12.999c1.234-1.252,1.726-3.083,1.217-4.773c-0.53-1.673-1.938-2.944-3.642-3.307     l-56.107-11.328c-1.585-0.322-3.207,0.177-4.347,1.312c-1.112,1.145-1.642,2.776-1.31,4.343l11.326,56.08     c0.373,1.72,1.626,3.14,3.289,3.647c1.7,0.518,3.558,0.041,4.81-1.222l12.971-12.98l30.402,30.384     c1.858,1.88,4.91,1.88,6.77,0.011l12.014-11.991c0.896-0.899,1.407-2.124,1.407-3.393c0-1.273-0.511-2.497-1.407-3.396     L439.552,250.876z" /&gt;&lt;path
           id="path11"
           d="M583.033,490.401l-30.341-87.733c-2.995-8.627-11.114-14.42-20.251-14.42h-4.616     c16.767-5.312,29.031-20.836,29.031-39.343V66.721c0-22.862-18.605-41.457-41.457-41.457H70.534     c-22.85,0-41.457,18.595-41.457,41.457v282.182c0,18.506,12.269,34.031,29.034,39.343h-4.598c-9.135,0-17.256,5.791-20.249,14.42     L2.92,490.401c-5.616,16.189-3.033,34.078,6.905,48.037c9.939,13.949,26.002,22.236,43.14,22.236H532.97     c17.139,0,33.199-8.287,43.139-22.236C586.047,524.489,588.629,506.59,583.033,490.401z M292.978,34.832     c5.771,0,10.468,4.696,10.468,10.467c0,5.782-4.696,10.467-10.468,10.467c-5.773,0-10.469-4.686-10.469-10.467     C282.508,39.528,287.204,34.832,292.978,34.832z M70.534,65.332l446.256,1.389V350.27l-447.646-1.367L70.534,65.332z      M373.642,520.088c-1.098,1.625-2.936,2.594-4.892,2.594H217.208c-1.958,0-3.796-0.969-4.892-2.594     c-1.075-1.621-1.292-3.678-0.567-5.484l14.615-36.166c2.974-7.326,10.094-12.129,17.999-12.129h97.235     c7.902,0,15.024,4.803,17.996,12.129l14.615,36.166C374.931,516.411,374.717,518.465,373.642,520.088z" /&gt;&lt;/g&gt;&lt;/g&gt;&lt;/g&gt;&lt;g
     id="g13" /&gt;&lt;g
     id="g15" /&gt;&lt;g
     id="g17" /&gt;&lt;g
     id="g19" /&gt;&lt;g
     id="g21" /&gt;&lt;g
     id="g23" /&gt;&lt;g
     id="g25" /&gt;&lt;g
     id="g27" /&gt;&lt;g
     id="g29" /&gt;&lt;g
     id="g31" /&gt;&lt;g
     id="g33" /&gt;&lt;g
     id="g35" /&gt;&lt;g
     id="g37" /&gt;&lt;g
     id="g39" /&gt;&lt;g
     id="g41" /&gt;&lt;/svg&gt;</y:Resource>
    </y:Resources>
  </data>
</graphml>
