<?xml version="1.0" encoding="UTF-8" standalone="no"?>
<graphml xmlns="http://graphml.graphdrawing.org/xmlns" xmlns:xsi="http://www.w3.org/2001/XMLSchema-instance" xmlns:y="http://www.yworks.com/xml/graphml" xmlns:yed="http://www.yworks.com/xml/yed/3" xsi:schemaLocation="http://graphml.graphdrawing.org/xmlns http://www.yworks.com/xml/schema/graphml/1.1/ygraphml.xsd">
  <!--Created by yEd 3.12-->
  <key for="graphml" id="d0" yfiles.type="resources"/>
  <key for="port" id="d1" yfiles.type="portgraphics"/>
  <key for="port" id="d2" yfiles.type="portgeometry"/>
  <key for="port" id="d3" yfiles.type="portuserdata"/>
  <key attr.name="url" attr.type="string" for="node" id="d4"/>
  <key attr.name="description" attr.type="string" for="node" id="d5"/>
  <key for="node" id="d6" yfiles.type="nodegraphics"/>
  <key attr.name="Description" attr.type="string" for="graph" id="d7"/>
  <key attr.name="url" attr.type="string" for="edge" id="d8"/>
  <key attr.name="description" attr.type="string" for="edge" id="d9"/>
  <key for="edge" id="d10" yfiles.type="edgegraphics"/>
  <graph edgedefault="directed" id="G">
    <data key="d7"/>
    <node id="n0">
      <data key="d5"/>
      <data key="d6">
        <y:SVGNode>
          <y:Geometry height="341.9777488759637" width="166.35186340238664" x="-354.9731750488281" y="-157.7015449218752"/>
          <y:Fill color="#CCCCFF" transparent="false"/>
          <y:BorderStyle color="#000000" type="line" width="1.0"/>
          <y:NodeLabel alignment="center" autoSizePolicy="content" fontFamily="Dialog" fontSize="24" fontStyle="plain" hasBackgroundColor="false" hasLineColor="false" hasText="false" height="4.0" modelName="sandwich" modelPosition="s" textColor="#000000" visible="true" width="4.0" x="81.17593170119332" y="345.9777488759637"/>
          <y:NodeLabel alignment="center" autoSizePolicy="content" fontFamily="Dialog" fontSize="30" fontStyle="plain" hasBackgroundColor="false" hasLineColor="false" height="40.7529296875" modelName="custom" textColor="#000000" visible="true" width="134.0341796875" x="16.15884185744332" y="359.0658904775264">Customer<y:LabelModel>
              <y:SmartNodeLabelModel distance="4.0"/>
            </y:LabelModel>
            <y:ModelParameter>
              <y:SmartNodeLabelModelParameter labelRatioX="0.0" labelRatioY="-0.5" nodeRatioX="0.0" nodeRatioY="0.5" offsetX="0.0" offsetY="17.08814160156271" upX="0.0" upY="-1.0"/>
            </y:ModelParameter>
          </y:NodeLabel>
          <y:SVGNodeProperties usingVisualBounds="true"/>
          <y:SVGModel svgBoundsPolicy="0">
            <y:SVGContent refid="1"/>
          </y:SVGModel>
        </y:SVGNode>
      </data>
    </node>
    <node id="n1">
      <data key="d5"/>
      <data key="d6">
        <y:SVGNode>
          <y:Geometry height="149.3261627696196" width="334.3629150390625" x="423.45187581380264" y="39.3463089238723"/>
          <y:Fill color="#CCCCFF" transparent="false"/>
          <y:BorderStyle color="#000000" type="line" width="1.0"/>
          <y:NodeLabel alignment="center" autoSizePolicy="content" fontFamily="Dialog" fontSize="24" fontStyle="plain" hasBackgroundColor="false" hasLineColor="false" hasText="false" height="4.0" modelName="sandwich" modelPosition="s" textColor="#000000" visible="true" width="4.0" x="165.18145751953125" y="153.3261627696196"/>
          <y:NodeLabel alignment="center" autoSizePolicy="content" fontFamily="Dialog" fontSize="30" fontStyle="plain" hasBackgroundColor="false" hasLineColor="false" height="40.7529296875" modelName="custom" textColor="#000000" visible="true" width="129.0244140625" x="102.66925048828125" y="54.2866165410598">Withdraw<y:LabelModel>
              <y:SmartNodeLabelModel distance="4.0"/>
            </y:LabelModel>
            <y:ModelParameter>
              <y:SmartNodeLabelModelParameter labelRatioX="0.0" labelRatioY="0.0" nodeRatioX="0.0" nodeRatioY="0.0" offsetX="0.0" offsetY="0.0" upX="0.0" upY="-1.0"/>
            </y:ModelParameter>
          </y:NodeLabel>
          <y:SVGNodeProperties usingVisualBounds="true"/>
          <y:SVGModel svgBoundsPolicy="0">
            <y:SVGContent refid="2"/>
          </y:SVGModel>
        </y:SVGNode>
      </data>
    </node>
    <node id="n2">
      <data key="d5"/>
      <data key="d6">
        <y:SVGNode>
          <y:Geometry height="149.3261627696196" width="334.3629150390625" x="423.45187581380264" y="-139.9798538457473"/>
          <y:Fill color="#CCCCFF" transparent="false"/>
          <y:BorderStyle color="#000000" type="line" width="1.0"/>
          <y:NodeLabel alignment="center" autoSizePolicy="content" fontFamily="Dialog" fontSize="24" fontStyle="plain" hasBackgroundColor="false" hasLineColor="false" hasText="false" height="4.0" modelName="sandwich" modelPosition="s" textColor="#000000" visible="true" width="4.0" x="165.18145751953125" y="153.3261627696196"/>
          <y:NodeLabel alignment="center" autoSizePolicy="content" fontFamily="Dialog" fontSize="30" fontStyle="plain" hasBackgroundColor="false" hasLineColor="false" height="40.7529296875" modelName="custom" textColor="#000000" visible="true" width="197.41796875" x="68.47247314453125" y="54.2866165410598">Transfer funds<y:LabelModel>
              <y:SmartNodeLabelModel distance="4.0"/>
            </y:LabelModel>
            <y:ModelParameter>
              <y:SmartNodeLabelModelParameter labelRatioX="0.0" labelRatioY="0.0" nodeRatioX="0.0" nodeRatioY="0.0" offsetX="0.0" offsetY="0.0" upX="0.0" upY="-1.0"/>
            </y:ModelParameter>
          </y:NodeLabel>
          <y:NodeLabel alignment="center" autoSizePolicy="content" fontFamily="Dialog" fontSize="30" fontStyle="bold" hasBackgroundColor="false" hasLineColor="false" height="40.7529296875" modelName="custom" textColor="#000000" visible="true" width="184.0439453125" x="-329.41326904296875" y="-61.06298599800249">ATM System<y:LabelModel>
              <y:SmartNodeLabelModel distance="4.0"/>
            </y:LabelModel>
            <y:ModelParameter>
              <y:SmartNodeLabelModelParameter labelRatioX="0.5" labelRatioY="0.5" nodeRatioX="-0.5" nodeRatioY="-0.5" offsetX="-145.36932373046875" offsetY="-20.31005631050249" upX="0.0" upY="-1.0"/>
            </y:ModelParameter>
          </y:NodeLabel>
          <y:SVGNodeProperties usingVisualBounds="true"/>
          <y:SVGModel svgBoundsPolicy="0">
            <y:SVGContent refid="2"/>
          </y:SVGModel>
        </y:SVGNode>
      </data>
    </node>
    <node id="n3">
      <data key="d5"/>
      <data key="d6">
        <y:SVGNode>
          <y:Geometry height="511.0543212890625" width="1126.044677734375" x="27.610994466146394" y="-232.09197314453104"/>
          <y:Fill color="#CCCCFF" transparent="false"/>
          <y:BorderStyle color="#000000" type="line" width="1.0"/>
          <y:NodeLabel alignment="center" autoSizePolicy="content" fontFamily="Dialog" fontSize="12" fontStyle="plain" hasBackgroundColor="false" hasLineColor="false" hasText="false" height="4.0" modelName="sandwich" modelPosition="s" textColor="#000000" underlinedText="true" visible="true" width="4.0" x="561.0223388671875" y="515.0543212890625"/>
          <y:NodeLabel alignment="center" autoSizePolicy="content" fontFamily="Dialog" fontSize="12" fontStyle="plain" hasBackgroundColor="false" hasLineColor="false" hasText="false" height="4.0" modelName="custom" textColor="#000000" visible="true" width="4.0" x="561.0223388671875" y="253.52716064453125">
            <y:LabelModel>
              <y:SmartNodeLabelModel distance="4.0"/>
            </y:LabelModel>
            <y:ModelParameter>
              <y:SmartNodeLabelModelParameter labelRatioX="0.0" labelRatioY="0.0" nodeRatioX="0.0" nodeRatioY="0.0" offsetX="0.0" offsetY="0.0" upX="0.0" upY="-1.0"/>
            </y:ModelParameter>
          </y:NodeLabel>
          <y:SVGNodeProperties usingVisualBounds="true"/>
          <y:SVGModel svgBoundsPolicy="0">
            <y:SVGContent refid="3"/>
          </y:SVGModel>
        </y:SVGNode>
      </data>
    </node>
    <node id="n4">
      <data key="d5"/>
      <data key="d6">
        <y:SVGNode>
          <y:Geometry height="341.9777488759637" width="166.35186340238664" x="1451.3036499023438" y="-147.55368693798164"/>
          <y:Fill color="#CCCCFF" transparent="false"/>
          <y:BorderStyle color="#000000" type="line" width="1.0"/>
          <y:NodeLabel alignment="center" autoSizePolicy="content" fontFamily="Dialog" fontSize="24" fontStyle="plain" hasBackgroundColor="false" hasLineColor="false" hasText="false" height="4.0" modelName="sandwich" modelPosition="s" textColor="#000000" visible="true" width="4.0" x="81.17593170119332" y="345.9777488759637"/>
          <y:NodeLabel alignment="center" autoSizePolicy="content" fontFamily="Dialog" fontSize="30" fontStyle="plain" hasBackgroundColor="false" hasLineColor="false" height="40.7529296875" modelName="custom" textColor="#000000" visible="true" width="72.37890625" x="46.98647857619335" y="359.0658904775264">Bank<y:LabelModel>
              <y:SmartNodeLabelModel distance="4.0"/>
            </y:LabelModel>
            <y:ModelParameter>
              <y:SmartNodeLabelModelParameter labelRatioX="0.0" labelRatioY="-0.5" nodeRatioX="0.0" nodeRatioY="0.5" offsetX="0.0" offsetY="17.08814160156271" upX="0.0" upY="-1.0"/>
            </y:ModelParameter>
          </y:NodeLabel>
          <y:SVGNodeProperties usingVisualBounds="true"/>
          <y:SVGModel svgBoundsPolicy="0">
            <y:SVGContent refid="1"/>
          </y:SVGModel>
        </y:SVGNode>
      </data>
    </node>
    <edge id="e0" source="n0" target="n1">
      <data key="d9"/>
      <data key="d10">
        <y:PolyLineEdge>
          <y:Path sx="69.55003327781378" sy="85.09706079257546" tx="-167.1936035156251" ty="-15.625"/>
          <y:LineStyle color="#000000" type="line" width="1.0"/>
          <y:Arrows source="none" target="none"/>
          <y:BendStyle smoothed="false"/>
        </y:PolyLineEdge>
      </data>
    </edge>
    <edge id="e1" source="n0" target="n2">
      <data key="d9"/>
      <data key="d10">
        <y:PolyLineEdge>
          <y:Path sx="73.36807668096867" sy="-78.71932951610643" tx="-167.1936035156251" ty="0.0">
            <y:Point x="75.39590657552134" y="-65.43199999999979"/>
            <y:Point x="75.39590657552134" y="-65.3167724609375"/>
          </y:Path>
          <y:LineStyle color="#000000" type="line" width="1.0"/>
          <y:Arrows source="none" target="none"/>
          <y:BendStyle smoothed="false"/>
        </y:PolyLineEdge>
      </data>
    </edge>
    <edge id="e2" source="n4" target="n2">
      <data key="d9"/>
      <data key="d10">
        <y:PolyLineEdge>
          <y:Path sx="-88.3774982702032" sy="-88.8671875" tx="167.15240478515625" ty="0.0">
            <y:Point x="1115.615785725912" y="-65.43199999999979"/>
            <y:Point x="1115.615785725912" y="-65.3167724609375"/>
          </y:Path>
          <y:LineStyle color="#000000" type="line" width="1.0"/>
          <y:Arrows source="none" target="none"/>
          <y:BendStyle smoothed="false"/>
        </y:PolyLineEdge>
      </data>
    </edge>
    <edge id="e3" source="n4" target="n1">
      <data key="d9"/>
      <data key="d10">
        <y:PolyLineEdge>
          <y:Path sx="-86.4243732702032" sy="88.8671875" tx="167.19818115234375" ty="0.0">
            <y:Point x="1062.5564574684354" y="112.30237500000021"/>
            <y:Point x="1062.5564574684354" y="114.0093903086821"/>
          </y:Path>
          <y:LineStyle color="#000000" type="line" width="1.0"/>
          <y:Arrows source="none" target="none"/>
          <y:BendStyle smoothed="false"/>
        </y:PolyLineEdge>
      </data>
    </edge>
  </graph>
  <data key="d0">
    <y:Resources>
      <y:Resource id="1">&lt;?xml version="1.0" encoding="UTF-8" standalone="no"?&gt;
&lt;!-- Created with Inkscape (http://www.inkscape.org/) --&gt;

&lt;svg
   xmlns:dc="http://purl.org/dc/elements/1.1/"
   xmlns:cc="http://creativecommons.org/ns#"
   xmlns:rdf="http://www.w3.org/1999/02/22-rdf-syntax-ns#"
   xmlns:svg="http://www.w3.org/2000/svg"
   xmlns="http://www.w3.org/2000/svg"
   xmlns:sodipodi="http://sodipodi.sourceforge.net/DTD/sodipodi-0.dtd"
   xmlns:inkscape="http://www.inkscape.org/namespaces/inkscape"
   width="210mm"
   height="297mm"
   viewBox="0 0 744.09448819 1052.3622047"
   id="svg2"
   version="1.1"
   inkscape:version="0.91 r13725"
   sodipodi:docname="Actor.svg"&gt;
  &lt;defs
     id="defs4" /&gt;
  &lt;sodipodi:namedview
     id="base"
     pagecolor="#ffffff"
     bordercolor="#666666"
     borderopacity="1.0"
     inkscape:pageopacity="0.0"
     inkscape:pageshadow="2"
     inkscape:zoom="0.35"
     inkscape:cx="-119.28571"
     inkscape:cy="520"
     inkscape:document-units="px"
     inkscape:current-layer="layer1"
     showgrid="false"
     inkscape:window-width="1822"
     inkscape:window-height="1051"
     inkscape:window-x="89"
     inkscape:window-y="-9"
     inkscape:window-maximized="1" /&gt;
  &lt;metadata
     id="metadata7"&gt;
    &lt;rdf:RDF&gt;
      &lt;cc:Work
         rdf:about=""&gt;
        &lt;dc:format&gt;image/svg+xml&lt;/dc:format&gt;
        &lt;dc:type
           rdf:resource="http://purl.org/dc/dcmitype/StillImage" /&gt;
        &lt;dc:title&gt;&lt;/dc:title&gt;
      &lt;/cc:Work&gt;
    &lt;/rdf:RDF&gt;
  &lt;/metadata&gt;
  &lt;g
     inkscape:label="Capa 1"
     inkscape:groupmode="layer"
     id="layer1"&gt;
    &lt;ellipse
       style="fill:#0000ff;fill-opacity:0;stroke:#000000;stroke-width:25;stroke-miterlimit:4;stroke-dasharray:none;stroke-opacity:0.69318183"
       id="path4136"
       cx="371.42859"
       cy="192.36221"
       rx="154.28572"
       ry="142.85715" /&gt;
    &lt;rect
       style="fill:#000000;fill-opacity:0.69411765;fill-rule:evenodd;stroke:#000000;stroke-width:8.3;stroke-linecap:butt;stroke-linejoin:miter;stroke-opacity:0.69411767;stroke-miterlimit:4;stroke-dasharray:none"
       id="rect4138"
       width="14.285714"
       height="411.42856"
       x="367.71429"
       y="343.79077" /&gt;
    &lt;path
       style="fill:none;fill-rule:evenodd;stroke:#000000;stroke-width:15.30000019;stroke-linecap:butt;stroke-linejoin:miter;stroke-miterlimit:4;stroke-dasharray:none;stroke-opacity:0.69411765"
       d="M 372.57143,758.07649 C 158.28571,986.64792 158.28571,986.64792 158.28571,986.64792"
       id="path4157"
       inkscape:connector-curvature="0" /&gt;
    &lt;path
       style="fill:none;fill-rule:evenodd;stroke:#000000;stroke-width:15.98181915;stroke-linecap:butt;stroke-linejoin:miter;stroke-miterlimit:4;stroke-dasharray:none;stroke-opacity:0.69411765"
       d="M 378.27643,760.03195 C 612.58072,988.12104 612.58072,988.12104 612.58072,988.12104"
       id="path4157-6"
       inkscape:connector-curvature="0" /&gt;
    &lt;path
       style="fill:none;fill-rule:evenodd;stroke:#000000;stroke-width:22.862;stroke-linecap:butt;stroke-linejoin:miter;stroke-miterlimit:4;stroke-dasharray:none;stroke-opacity:0.69411765"
       d="M 572.44406,453.72944 C 170.41309,490.99498 170.41309,490.99498 170.41309,490.99498"
       id="path4157-5"
       inkscape:connector-curvature="0" /&gt;
  &lt;/g&gt;
&lt;/svg&gt;
</y:Resource>
      <y:Resource id="2">&lt;?xml version="1.0" encoding="UTF-8" standalone="no"?&gt;
&lt;svg
   xmlns:dc="http://purl.org/dc/elements/1.1/"
   xmlns:cc="http://creativecommons.org/ns#"
   xmlns:rdf="http://www.w3.org/1999/02/22-rdf-syntax-ns#"
   xmlns:svg="http://www.w3.org/2000/svg"
   xmlns="http://www.w3.org/2000/svg"
   version="1.1"
   id="svg2"
   viewBox="0 0 744.09448819 1052.3622047"
   height="297mm"
   width="210mm"&gt;
  &lt;defs
     id="defs4" /&gt;
  &lt;metadata
     id="metadata7"&gt;
    &lt;rdf:RDF&gt;
      &lt;cc:Work
         rdf:about=""&gt;
        &lt;dc:format&gt;image/svg+xml&lt;/dc:format&gt;
        &lt;dc:type
           rdf:resource="http://purl.org/dc/dcmitype/StillImage" /&gt;
        &lt;dc:title&gt;&lt;/dc:title&gt;
      &lt;/cc:Work&gt;
    &lt;/rdf:RDF&gt;
  &lt;/metadata&gt;
  &lt;g
     id="layer1"&gt;
    &lt;ellipse
       ry="130"
       rx="304.28571"
       cy="242.3622"
       cx="387.14285"
       id="path4136"
       style="fill:#0000ff;fill-opacity:0;stroke:#000000;stroke-width:21.3;stroke-miterlimit:4;stroke-dasharray:none;stroke-opacity:0.69318183" /&gt;
  &lt;/g&gt;
&lt;/svg&gt;
</y:Resource>
      <y:Resource id="3">&lt;?xml version="1.0" encoding="UTF-8" standalone="no"?&gt;
&lt;svg
   xmlns:dc="http://purl.org/dc/elements/1.1/"
   xmlns:cc="http://creativecommons.org/ns#"
   xmlns:rdf="http://www.w3.org/1999/02/22-rdf-syntax-ns#"
   xmlns:svg="http://www.w3.org/2000/svg"
   xmlns="http://www.w3.org/2000/svg"
   version="1.1"
   id="svg2"
   viewBox="0 0 744.09448819 1052.3622047"
   height="297mm"
   width="210mm"&gt;
  &lt;defs
     id="defs4" /&gt;
  &lt;metadata
     id="metadata7"&gt;
    &lt;rdf:RDF&gt;
      &lt;cc:Work
         rdf:about=""&gt;
        &lt;dc:format&gt;image/svg+xml&lt;/dc:format&gt;
        &lt;dc:type
           rdf:resource="http://purl.org/dc/dcmitype/StillImage" /&gt;
        &lt;dc:title&gt;&lt;/dc:title&gt;
      &lt;/cc:Work&gt;
    &lt;/rdf:RDF&gt;
  &lt;/metadata&gt;
  &lt;g
     id="layer1"&gt;
    &lt;rect
       y="12.362205"
       x="22.857143"
       height="1028.5714"
       width="691.42859"
       id="rect4189"
       style="fill:#ffffff;fill-rule:evenodd;stroke:#000000;stroke-width:20;stroke-linecap:butt;stroke-linejoin:miter;stroke-opacity:0.70183486;fill-opacity:0;stroke-miterlimit:4;stroke-dasharray:none" /&gt;
  &lt;/g&gt;
&lt;/svg&gt;
</y:Resource>
    </y:Resources>
  </data>
</graphml>
